simulation/qsim/ula.msim.vcd
$comment
	File created using the following command:
		vcd file ula.msim.vcd -direction
$end
$date
	Mon Aug 06 00:17:54 2018
$end
$version
	ModelSim Version 10.3d
$end
$timescale
	1ps
$end

$scope module ula_vlg_vec_tst $end
$var reg 8 ! e1 [7:0] $end
$var reg 8 " e2 [7:0] $end
$var reg 8 # op [7:0] $end
$var wire 1 $ s1 [7] $end
$var wire 1 % s1 [6] $end
$var wire 1 & s1 [5] $end
$var wire 1 ' s1 [4] $end
$var wire 1 ( s1 [3] $end
$var wire 1 ) s1 [2] $end
$var wire 1 * s1 [1] $end
$var wire 1 + s1 [0] $end
$var wire 1 , s2 [7] $end
$var wire 1 - s2 [6] $end
$var wire 1 . s2 [5] $end
$var wire 1 / s2 [4] $end
$var wire 1 0 s2 [3] $end
$var wire 1 1 s2 [2] $end
$var wire 1 2 s2 [1] $end
$var wire 1 3 s2 [0] $end
$var wire 1 4 sampler $end

$scope module i1 $end
$var wire 1 5 gnd $end
$var wire 1 6 vcc $end
$var wire 1 7 unknown $end
$var tri1 1 8 devclrn $end
$var tri1 1 9 devpor $end
$var tri1 1 : devoe $end
$var wire 1 ; s1[0]~output_o $end
$var wire 1 < s1[1]~output_o $end
$var wire 1 = s1[2]~output_o $end
$var wire 1 > s1[3]~output_o $end
$var wire 1 ? s1[4]~output_o $end
$var wire 1 @ s1[5]~output_o $end
$var wire 1 A s1[6]~output_o $end
$var wire 1 B s1[7]~output_o $end
$var wire 1 C s2[0]~output_o $end
$var wire 1 D s2[1]~output_o $end
$var wire 1 E s2[2]~output_o $end
$var wire 1 F s2[3]~output_o $end
$var wire 1 G s2[4]~output_o $end
$var wire 1 H s2[5]~output_o $end
$var wire 1 I s2[6]~output_o $end
$var wire 1 J s2[7]~output_o $end
$var wire 1 K op[5]~input_o $end
$var wire 1 L op[6]~input_o $end
$var wire 1 M op[7]~input_o $end
$var wire 1 N op[4]~input_o $end
$var wire 1 O Mux8~0_combout $end
$var wire 1 P op[2]~input_o $end
$var wire 1 Q op[3]~input_o $end
$var wire 1 R op[1]~input_o $end
$var wire 1 S op[0]~input_o $end
$var wire 1 T Mux8~1_combout $end
$var wire 1 U Mux8~2_combout $end
$var wire 1 V Mux8~2clkctrl_outclk $end
$var wire 1 W Mux5~2_combout $end
$var wire 1 X e1[0]~input_o $end
$var wire 1 Y Mux5~5_combout $end
$var wire 1 Z Mux5~16_combout $end
$var wire 1 [ e2[0]~input_o $end
$var wire 1 \ Mux5~3_combout $end
$var wire 1 ] Mux5~4_combout $end
$var wire 1 ^ Mux5~7_combout $end
$var wire 1 _ Mux5~9_combout $end
$var wire 1 ` Mux5~8_combout $end
$var wire 1 a Add0~0_combout $end
$var wire 1 b Add0~1_combout $end
$var wire 1 c Add0~2_combout $end
$var wire 1 d Add0~4_cout $end
$var wire 1 e Add0~5_combout $end
$var wire 1 f Mux5~11_combout $end
$var wire 1 g Mux5~10_combout $end
$var wire 1 h Mux5~12_combout $end
$var wire 1 i Mux5~13_combout $end
$var wire 1 j Mux5~14_combout $end
$var wire 1 k Mux5~6_combout $end
$var wire 1 l Mux5~15_combout $end
$var wire 1 m s1[0]$latch~combout $end
$var wire 1 n e1[1]~input_o $end
$var wire 1 o Mux4~0_combout $end
$var wire 1 p e2[1]~input_o $end
$var wire 1 q Mux4~1_combout $end
$var wire 1 r Add0~7_combout $end
$var wire 1 s Add0~6 $end
$var wire 1 t Add0~8_combout $end
$var wire 1 u Mux4~2_combout $end
$var wire 1 v Mux4~3_combout $end
$var wire 1 w Mux4~4_combout $end
$var wire 1 x Mux4~5_combout $end
$var wire 1 y s1[1]$latch~combout $end
$var wire 1 z e1[2]~input_o $end
$var wire 1 { Mux3~8_combout $end
$var wire 1 | Mux3~2_combout $end
$var wire 1 } e2[2]~input_o $end
$var wire 1 ~ Mux3~3_combout $end
$var wire 1 !! Mux3~4_combout $end
$var wire 1 "! Add0~10_combout $end
$var wire 1 #! Add0~9 $end
$var wire 1 $! Add0~11_combout $end
$var wire 1 %! Mux3~5_combout $end
$var wire 1 &! Mux3~6_combout $end
$var wire 1 '! Mux3~7_combout $end
$var wire 1 (! s1[2]$latch~combout $end
$var wire 1 )! e1[3]~input_o $end
$var wire 1 *! e2[3]~input_o $end
$var wire 1 +! Mux2~1_combout $end
$var wire 1 ,! Mux2~0_combout $end
$var wire 1 -! Mux2~2_combout $end
$var wire 1 .! Add0~13_combout $end
$var wire 1 /! Add0~12 $end
$var wire 1 0! Add0~14_combout $end
$var wire 1 1! Mux2~3_combout $end
$var wire 1 2! Mux2~4_combout $end
$var wire 1 3! Mux2~5_combout $end
$var wire 1 4! s1[3]$latch~combout $end
$var wire 1 5! e1[4]~input_o $end
$var wire 1 6! e2[4]~input_o $end
$var wire 1 7! Mux1~2_combout $end
$var wire 1 8! Add0~16_combout $end
$var wire 1 9! Add0~15 $end
$var wire 1 :! Add0~17_combout $end
$var wire 1 ;! Mux1~4_combout $end
$var wire 1 <! Mux1~5_combout $end
$var wire 1 =! Mux1~0_combout $end
$var wire 1 >! Mux1~1_combout $end
$var wire 1 ?! Mux1~3_combout $end
$var wire 1 @! s1[4]$latch~combout $end
$var wire 1 A! e1[5]~input_o $end
$var wire 1 B! e2[5]~input_o $end
$var wire 1 C! Mux0~0_combout $end
$var wire 1 D! Mux0~1_combout $end
$var wire 1 E! Add0~19_combout $end
$var wire 1 F! Add0~18 $end
$var wire 1 G! Add0~20_combout $end
$var wire 1 H! Mux0~2_combout $end
$var wire 1 I! Mux0~3_combout $end
$var wire 1 J! Mux0~4_combout $end
$var wire 1 K! Mux0~5_combout $end
$var wire 1 L! s1[5]$latch~combout $end
$var wire 1 M! e2[6]~input_o $end
$var wire 1 N! Add0~22_combout $end
$var wire 1 O! e1[6]~input_o $end
$var wire 1 P! Add0~21 $end
$var wire 1 Q! Add0~23_combout $end
$var wire 1 R! Mux6~3_combout $end
$var wire 1 S! Mux6~2_combout $end
$var wire 1 T! Mux6~4_combout $end
$var wire 1 U! Mux6~5_combout $end
$var wire 1 V! Mux6~0_combout $end
$var wire 1 W! Mux6~1_combout $end
$var wire 1 X! Mux6~6_combout $end
$var wire 1 Y! s1[6]$latch~combout $end
$var wire 1 Z! e1[7]~input_o $end
$var wire 1 [! e2[7]~input_o $end
$var wire 1 \! Mux7~0_combout $end
$var wire 1 ]! Mux7~1_combout $end
$var wire 1 ^! Mux7~2_combout $end
$var wire 1 _! Add0~25_combout $end
$var wire 1 `! Add0~24 $end
$var wire 1 a! Add0~26_combout $end
$var wire 1 b! Mux7~3_combout $end
$var wire 1 c! Mux7~4_combout $end
$var wire 1 d! Mux7~5_combout $end
$var wire 1 e! s1[7]$latch~combout $end
$upscope $end
$upscope $end
$enddefinitions $end
#0
$dumpvars
b111100 !
b1010011 "
b1111 #
1+
1*
1)
1(
1'
1&
1%
1$
03
02
01
00
0/
0.
0-
0,
x4
05
16
x7
18
19
1:
1;
1<
1=
1>
1?
1@
1A
1B
0C
0D
0E
0F
0G
0H
0I
0J
0K
0L
0M
0N
1O
1P
1Q
1R
1S
0T
0U
0V
0W
0X
1Y
1Z
1[
0\
1]
1^
0_
0`
1a
0b
0c
0d
1e
1f
0g
0h
0i
0j
1k
1l
1m
0n
0o
1p
1q
1r
1s
1t
0u
0v
0w
1x
1y
1z
0{
1|
0}
1~
0!!
1"!
0#!
0$!
0%!
0&!
1'!
1(!
1)!
0*!
1+!
0,!
0-!
1.!
0/!
10!
01!
02!
13!
14!
15!
16!
07!
18!
19!
1:!
0;!
0<!
0=!
1>!
1?!
1@!
1A!
0B!
1C!
1D!
1E!
0F!
1G!
0H!
0I!
0J!
1K!
1L!
1M!
1N!
0O!
1P!
0Q!
0R!
1S!
0T!
0U!
1V!
1W!
1X!
1Y!
0Z!
0[!
1\!
1]!
1^!
1_!
0`!
0a!
1b!
1c!
1d!
1e!
$end
#5000
b1111100 !
b1011100 !
b1001100 !
b1001110 !
b1001111 !
b11010011 "
b11011011 "
b11011010 "
b1101 #
0R
0[
1*!
1[!
1X
1n
05!
0A!
1O!
04
1b
1`
1_
0]
1T
0^
0^!
0s
0e
0Z
1#!
0t
0:!
1H!
0G!
0S!
1R!
1Q!
1I!
1;!
11!
1&!
1v
0]!
0W!
0D!
0>!
0+!
0|
0q
0k
1^
1U
1t
1$!
1V
1J!
1<!
0X!
0K!
0?!
03!
0x
0l
1j
1K!
1?!
1l
#10000
b1001011 !
b11011110 "
b11011100 "
b1011 !
b101011 !
b111011 !
b1011100 "
b1010100 "
0p
1}
0*!
0[!
0z
15!
1A!
0O!
14
1w
12!
1^!
0$!
1{
0;!
1:!
0H!
1G!
1S!
0Q!
1x
13!
0<!
1T!
0?!
1U!
1X!
#15000
b1110100 "
b1100100 "
b111001 !
b111000 !
b1100101 "
b111100 !
b1100001 "
b11100 !
b11100001 "
b11101001 "
0X
0n
1z
0A!
1[
0}
1*!
06!
1B!
1[!
04
1s
1e
1Z
1u
0t
1$!
0~
1|
0{
0G!
02!
1;!
0^!
0#!
1t
0&!
1~
0|
03!
1<!
0$!
0'!
1&!
1?!
1'!
#20000
b10011100 !
b10010100 !
b1001 #
b1011 #
b11010100 !
b11000100 !
b11111001 "
b11000110 !
b11100110 !
b1111001 "
16!
0[!
1R
0P
1n
0)!
05!
1A!
1O!
1Z!
14
0b
0`
0T
1g
0U
0u
1#!
0t
12!
00!
0:!
0J!
1G!
0S!
1Q!
1a!
0V
0b!
0T!
1J!
0I!
0<!
0;!
01!
0&!
0v
0j
17!
1-!
1h
1$!
13!
0K!
04!
0>
0c!
0U!
1K!
0J!
0?!
1<!
02!
0'!
0w
0l
11!
1i
0(
14!
0L!
0@
1>
0d!
0X!
0K!
1?!
03!
0x
12!
1j
0&
1(
1L!
0@!
0(!
0m
0;
0=
0?
1@
13!
1l
0+
0)
0'
1&
0e!
0Y!
0L!
1@!
04!
0y
0<
0>
1?
0@
0A
0B
0*
0(
1'
0&
0%
0$
14!
1m
1;
1>
1+
1(
#25000
b111001 "
b111011 "
b111010 "
b111110 "
b110110 "
b1100110 !
b1111 #
b1101 #
b100110 !
b100100 !
0R
1P
0n
0O!
0Z!
0[
1p
1}
0*!
0M!
04
1b
1`
1T
0g
1u
0#!
1t
1S!
0Q!
0a!
1^!
0~
1b!
1T!
1I!
0<!
1;!
1w
1v
1U
07!
0u
0$!
1V
1c!
1U!
0?!
1<!
1x
1d!
1X!
1?!
#30000
b10001101 #
b10011101 #
b10010101 #
b100 !
b10110110 "
b11110110 "
b11110100 "
b11110000 "
b11111000 "
b10010111 #
b1000100 !
b1000110 !
0p
0}
1*!
1M!
1[!
1n
0A!
1O!
1R
0Q
1N
1M
14
1~
0.!
0-!
0S!
0N!
0_!
0^!
0\!
1#!
0t
1J!
0G!
0C!
1Q!
0b
0`
0_
1]
0T
0E!
08!
0U
0O
0V
09!
10!
01!
0T!
0Q!
1a!
0b!
1$!
0v
0I!
0<!
0;!
0j
0d!
0X!
0?!
03!
0x
1W!
1|
1k
0^
0P!
1G!
1F!
1:!
1{
1o
1\
1e!
1Y!
1y
1<
1A
1B
0:!
02!
0U!
0c!
0w
0J!
1X!
1`!
1Q!
0G!
0~
1x
0]
1*
1%
1$
0e!
0Y!
0@!
04!
0y
0<
0>
0?
0A
0B
0a!
1'!
0k
1^
0*
0(
0'
0%
0$
1Y!
1y
1<
1A
0l
1*
1%
1(!
1=
1)
0m
0;
0+
#35000
b10110111 #
b1001110 !
b1011110 !
b11011110 !
b10110011 #
b110011 #
b100011 #
b11111110 !
b1111000 "
b1111010 "
b1110010 "
b10111110 !
b10111100 !
1p
0*!
0[!
0n
1)!
15!
1A!
0O!
1Z!
0P
0N
1K
0M
04
0r
1.!
1_!
0#!
1t
0o
19!
00!
1,!
1=!
1:!
1G!
1D!
1C!
0W!
0V!
1S!
0R!
0Q!
1a!
1]!
1g
0f
0t
10!
0a!
0$!
0x
0F!
0:!
13!
1?!
1K!
0X!
1T!
1d!
1^!
1H!
17!
1-!
1!!
1u
0h
1v
11!
1b!
1%!
1P!
0G!
1<!
1U!
1I!
0i
0y
14!
1@!
1L!
0Y!
1e!
1B
0A
1@
1?
1>
0<
1w
12!
1c!
1Q!
1J!
1$
0%
1&
1'
1(
0*
#40000
b10111101 !
b10111001 !
b1100010 "
b1100011 "
b101011 #
b10110001 !
b10100001 !
b10101011 #
b10111011 #
b11100011 "
b11100001 "
b11101001 "
b10100011 !
1Q
1N
1M
1[
0p
1*!
06!
1[!
1X
1n
0z
0)!
05!
14
1\!
1V!
1N!
1E!
18!
1r
1f
1h
0^
07!
1k
0s
0e
1t
1o
1/!
1$!
0!!
1~
0|
00!
0,!
0=!
1F!
1:!
0`!
0Q!
0F!
0:!
1#!
0^!
0H!
17!
1!!
0u
0h
1i
1l
0<!
1x
09!
10!
0%!
0'!
03!
0?!
1a!
1G!
1<!
0/!
0$!
0b!
0I!
1%!
0v
0i
1F!
1:!
1m
1y
0(!
04!
0@!
0?
0>
0=
1<
1;
19!
00!
0c!
0J!
0w
0G!
0'
0(
0)
1*
1+
0F!
0:!
1G!
#45000
b11111011 #
b11111010 #
b11001001 "
b10001001 "
b10001101 "
b11111000 #
b11011000 #
b100011 !
b11011100 #
b11 !
b1000011 !
b1000111 !
b1001111 !
b1011111 !
b1011100 #
b10001111 "
b1011101 !
0n
1z
1)!
15!
0A!
1O!
0Z!
1p
1}
0B!
0M!
0S
0R
1P
0K
1L
0M
04
1u
0t
0o
1$!
0!!
0~
1|
10!
0-!
1,!
1=!
1:!
07!
1H!
0G!
0D!
1W!
0S!
1Q!
0a!
1^!
0]!
0r
0"!
0E!
0N!
0_!
08!
0.!
0g
0Y
1W
1`
0x
1'!
01!
13!
1?!
0<!
0K!
1X!
0T!
0d!
0#!
1t
0$!
0P!
1G!
0Q!
1a!
0:!
00!
0^!
0u
1R!
1;!
1c!
1S!
02!
1w
0U!
1/!
1$!
0%!
1`!
1Q!
1<!
1T!
0y
1(!
14!
1@!
0L!
1Y!
0e!
0B
1A
0@
1?
1>
1=
0<
09!
10!
1%!
0a!
1U!
0$
1%
0&
1'
1(
1)
0*
1F!
1:!
0G!
#50000
b1011100 !
b10011111 "
b10011110 "
b1010100 #
b10010110 "
b10100 #
b10101 #
b10110110 "
b11110110 "
b11110010 "
b110101 #
b1111100 !
b1111000 !
b1101000 !
b10110101 #
1S
0Q
1K
0L
1M
0[
0}
0*!
16!
1B!
1M!
0X
0z
05!
1A!
14
1.!
1"!
1Y
0W
1T
0\!
1h
1^
1!!
1~
12!
0H!
0S!
0k
1s
1e
0Z
0$!
0|
0{
0=!
0:!
1G!
1D!
19!
00!
1$!
1b!
1I!
11!
1{
1v
1i
1Z
0l
0'!
0T!
0t
0^
0~
0?!
1K!
1:!
1~
1^
0U!
0m
0(!
0@!
1L!
1@
0?
0=
0;
1&
0'
0)
0+
#55000
b10100101 #
b11110000 "
b1101010 !
b1101011 !
b11100000 "
b10101101 #
b10101100 #
b11100100 "
b1001011 !
b1001111 !
b1011111 !
b101100 #
1X
1n
1z
15!
0A!
0p
1}
06!
0S
1Q
0N
0M
04
1k
0h
0s
0e
0^
1t
1o
0/!
0$!
0!!
0~
1|
1=!
0F!
0:!
1J!
0G!
0D!
0"!
0.!
0Y
1W
0T
1\!
1b
1l
0i
1#!
0t
0v
1x
0%!
1'!
1?!
1G!
0K!
0I!
1/!
1$!
0b!
01!
0/!
0$!
09!
10!
1%!
1m
1y
1(!
1@!
0L!
0@
1?
1=
1<
1;
19!
00!
0%!
1F!
1:!
0&
1'
1)
1*
1+
0F!
0:!
0G!
1G!
#60000
b1100100 "
b11011111 !
b1000100 "
b100 "
b10100 "
b100100 #
b100101 #
b11001111 !
1S
0Q
05!
1Z!
16!
0B!
0M!
0[!
14
1_!
1N!
1E!
1.!
1r
1Y
0W
1T
0\!
0V!
0=!
1F!
1:!
1a!
1]!
0J!
1H!
1S!
0a!
0`!
0Q!
10!
1t
1b!
1I!
11!
1v
0?!
1d!
1T!
1a!
1U!
1J!
0@!
1e!
1B
0?
1$
0'
#65000
b100001 #
b10001111 !
b10101 "
b1100001 #
b1000001 #
b1010001 #
b10111 "
b10001101 !
b10011 "
b10101101 !
b1010011 "
b1000011 "
b1011001 #
b1011000 #
1[
1p
0}
06!
1M!
0n
1A!
0O!
0S
0P
1Q
1N
0K
1L
04
0r
17!
1V!
0N!
0t
0o
0H!
1P!
0G!
1D!
0W!
1`!
1Q!
0_!
0E!
0.!
0f
0Y
0T
0`
1\!
0b
0#!
1t
0v
0x
0I!
1K!
0X!
0P!
1G!
00!
07!
1h
1/!
1$!
1v
0w
0J!
0Q!
1I!
01!
0y
1L!
0Y!
0A
1@
0<
09!
10!
1%!
1w
0U!
1J!
02!
0%
1&
0*
0:!
11!
0<!
12!
#70000
b1011010 #
b10100101 !
b1001011 "
b10100100 !
b1101011 "
b1011110 #
b1101010 "
b1001110 #
b10000100 !
b1000110 #
0[
1*!
1B!
0X
0)!
0A!
1R
1P
0Q
0N
14
0h
0a
1^
1.!
1E!
0C!
0k
1s
1e
0Z
00!
0,!
0G!
0D!
1Y
1f
0\!
0V!
1N!
1r
0e
0l
10!
1G!
0^
01!
03!
0I!
0K!
0b!
1U!
0R!
0;!
0%!
0v
1Z
17!
1h
1Q!
1i
02!
0J!
0c!
0T!
1<!
0w
1^
0m
04!
0L!
0@
0>
0;
0U!
0&
0(
0+
#75000
b11000110 #
b100 !
b10000110 #
b10100110 #
b1101110 "
b101110 "
b1110 "
b10100010 #
b1111 "
1[
1}
0B!
0M!
0Z!
0P
1K
0L
1M
04
0h
1a
1"!
1H!
0E!
1C!
1V!
1R!
0N!
0a!
1^!
0]!
1\!
0f
0i
1e
0/!
0$!
1I!
0G!
1T!
0Q!
1b!
0d!
0^!
0S!
0H!
07!
1!!
19!
00!
1%!
1J!
0I!
1U!
1c!
0b!
0T!
0<!
0e!
0B
1:!
0J!
0c!
0U!
0$
#80000
b10001111 "
b10100 !
b1010100 !
b10001101 "
b1010110 !
b10000101 "
b1110110 !
b11110110 !
b11100010 #
b10000001 "
b10100001 "
1L
1n
15!
1A!
1O!
1Z!
0p
0}
0*!
1B!
1[!
14
1#!
0t
1o
1=!
0F!
0:!
1H!
1G!
1D!
1W!
0V!
1S!
0R!
1Q!
1a!
1^!
1]!
0r
0"!
0!!
0.!
1E!
1_!
1x
1?!
1P!
1I!
1K!
1X!
1b!
1d!
0#!
1t
0%!
09!
10!
0a!
0`!
0Q!
1J!
1c!
1/!
1$!
1F!
1:!
1y
1@!
1L!
1Y!
1e!
1B
1A
1@
1?
1<
1a!
00!
0G!
1$
1%
1&
1'
1*
#85000
b11110010 !
b11110010 #
b11010010 #
b10100000 "
b11100010 !
b10100010 !
b10101000 "
b100010 !
b10010010 #
b10101100 "
b10001100 "
0[
1}
1*!
0B!
1N
0K
0L
0z
05!
0O!
0Z!
04
0a
1"!
1~
1.!
0H!
0E!
0C!
0$!
0|
0=!
0:!
0W!
1V!
0S!
1R!
1`!
1Q!
0a!
0^!
0]!
0\!
0e
1$!
0'!
10!
0I!
0P!
1G!
0?!
0X!
1a!
0b!
0d!
0J!
0Q!
0c!
0(!
0@!
0Y!
0e!
0B
0A
0?
0=
0$
0%
0'
0)
#90000
b10011100 "
b10010011 #
b10010001 #
b101010 !
b10011001 #
b11100 "
b11110 "
b10001001 #
b11111 "
b111010 !
b10111 "
b10111010 !
b11001001 #
b10011 "
b110011 "
1)!
15!
1Z!
1S
0R
1Q
0N
1L
1[
1p
0}
0*!
16!
1B!
0[!
14
19!
00!
1,!
1=!
1:!
17!
0a!
1]!
1\!
1N!
1E!
18!
1r
1g
1f
1a
0Y
1T
1b
1C!
1u
1H!
0F!
13!
1?!
1<!
1d!
1Q!
1P!
0G!
1#!
0t
0H!
07!
1!!
0u
1h
1S!
1e
1I!
1;!
1%!
0{
1v
0Z
1G!
1U!
0`!
0Q!
0I!
0/!
0$!
0v
1i
1T!
1J!
0~
1w
14!
1@!
1e!
1B
1?
1>
1I!
1a!
0U!
0J!
10!
0%!
0w
1$
1'
1(
1J!
1b!
11!
1c!
12!
#95000
b1110011 "
b11001101 #
b10111000 !
b11111000 !
b11001100 #
b11001110 #
b11110000 !
b1110001 "
b1110000 "
b10001110 #
b1110100 "
b1010100 "
0n
0)!
1O!
0S
1R
1P
0L
0[
0p
1}
0B!
1M!
04
1u
0#!
1t
0o
00!
1-!
0,!
1W!
0S!
1Q!
0_!
0N!
0E!
08!
0.!
0"!
0r
0g
1Y
1W
0T
0b
0^
1~
1v
1/!
0x
03!
1X!
0T!
1U!
0a!
0Q!
0G!
0:!
09!
10!
0t
0!!
0b!
0I!
0;!
1%!
1{
1Z
1w
00!
0U!
0<!
1F!
1:!
0%!
0c!
0J!
1^
0y
04!
1Y!
1A
0>
0<
0P!
1G!
1%
0(
0*
1`!
1Q!
1a!
#100000
b11110001 !
b1110 #
b11010100 "
b1110001 !
b10010100 "
b1010 #
b110001 !
b10010000 "
b10110000 "
0}
1B!
0M!
1[!
0P
0M
1X
0O!
0Z!
14
1!!
1S!
0f
1O
1k
0h
0s
0e
0^
0W!
0Q!
0a!
0]!
1%!
1T!
0S!
1H!
17!
0-!
0!!
0u
1l
0i
1t
0X!
0d!
1U!
0T!
1I!
1<!
01!
0%!
0v
1m
0Y!
0e!
0B
0A
1;
0U!
1J!
02!
0w
0$
0%
1+
#105000
b110101 !
b10100000 "
b11010 #
b100101 !
b10101000 "
b11011 #
b11001 #
b10101010 "
b11101010 "
b11101 #
b11101110 "
b11001110 "
1S
0R
1P
1N
1p
1}
1*!
06!
0B!
1M!
1z
05!
04
1_!
1N!
1E!
18!
1.!
1"!
1r
1f
0W
1T
1`
0O
1!!
0~
07!
0H!
1S!
0R!
1$!
1|
0=!
0:!
1a!
1Q!
1P!
0G!
1:!
10!
0/!
0$!
1#!
0t
17!
0!!
1c!
1b!
1R!
0<!
1;!
12!
11!
1w
1v
1%!
1'!
0?!
0`!
0Q!
1<!
19!
00!
0%!
1$!
1T!
1(!
0@!
0?
1=
0a!
1U!
0F!
0:!
0'
1)
1G!
#110000
b101 !
b10101 #
b1101 !
b1100 !
b10010101 #
b10001100 !
b11011110 "
b10000101 #
b10000111 #
b11011100 "
b10011100 "
b10011000 "
b10111000 "
0p
0}
16!
1B!
0M!
1R
0Q
0N
1M
0X
1)!
0A!
1Z!
14
1u
08!
07!
0E!
0C!
0`
0T
0_!
0.!
0k
1h
1s
1e
1^
02!
10!
1,!
0G!
0D!
0c!
1a!
1]!
1F!
1:!
0<!
0P!
1G!
1c!
0b!
0I!
0;!
12!
01!
0a!
00!
0l
1i
0#!
1t
13!
0K!
1d!
0G!
1`!
1Q!
0c!
0J!
02!
0$!
0m
14!
0L!
1e!
1B
0@
1>
0;
1a!
1$
0&
1(
0+
#115000
b10100111 #
b11100111 #
b11001100 !
b11001000 !
b10110000 "
b11100110 #
b11100010 #
b11101000 !
b1101000 !
b10100000 "
b11100000 #
b10100100 "
1}
0*!
06!
0z
1A!
1O!
0Z!
0S
0R
0P
1K
1L
04
1~
17!
1/!
1$!
0|
1G!
1D!
1C!
1W!
0V!
0S!
0R!
0`!
0Q!
0a!
0]!
0\!
1_!
0N!
1E!
0r
0f
0a
0Y
1b
0'!
1<!
09!
10!
1%!
1I!
1K!
1X!
0T!
0U!
0d!
1`!
1Q!
1P!
0G!
0t
1S!
1H!
07!
0u
0h
0e
1R!
1;!
0{
0Z
0:!
11!
1J!
1U!
1a!
0`!
0Q!
0I!
0v
1T!
0i
0^
0(!
1L!
1Y!
0e!
0B
1A
1@
0=
0<!
12!
1b!
0a!
0U!
0J!
0w
0$
1%
1&
0)
1c!
0b!
0c!
#120000
b100100 "
b1100000 !
b100110 "
b1100110 "
b1000110 "
b100000 !
b1001110 "
b11100001 #
b11100101 #
b10100000 !
b11100111 #
b1001010 "
1S
1R
1P
0)!
0O!
1Z!
1p
0}
1*!
0B!
1M!
0[!
14
18!
1f
1a
1Y
0b
00!
0,!
0W!
1`!
1Q!
1a!
1]!
0~
0H!
0C!
1:!
17!
1!!
1h
1e
1U!
0R!
0;!
01!
0%!
1{
1Z
03!
0X!
0a!
1d!
1<!
1%!
1i
0T!
02!
1~
1^
04!
0Y!
1e!
1B
0A
0>
0U!
1$
0%
0(
#125000
b1001011 "
b10110000 !
b11101111 #
b10110001 !
b11001111 #
b10001111 #
b10110101 !
b1011011 "
b11011011 "
b11111011 "
b11110101 !
b10001110 #
b10001010 #
b1110101 !
b10001000 #
0S
0R
0P
1Q
0K
0L
1X
1z
15!
1O!
0Z!
1[
16!
1B!
1[!
04
0_!
0E!
08!
0"!
0f
0Y
1b
1\!
1V!
1C!
1k
0h
0s
0e
0^
0/!
0$!
0!!
0~
1|
1=!
0F!
0:!
07!
1W!
0S!
1R!
0`!
0Q!
1a!
0]!
1F!
1:!
1/!
1$!
1S!
1H!
17!
1h
1b!
1;!
0%!
0i
1l
1t
10!
1'!
1?!
0<!
1X!
0d!
0P!
1G!
1<!
00!
1%!
1T!
1c!
1v
11!
1m
1(!
1@!
1Y!
0e!
0B
1A
1?
1=
1;
1`!
1Q!
1I!
01!
1w
12!
0$
1%
1'
1)
1+
0a!
1U!
1J!
02!
0b!
0c!
#130000
b1110111 !
b10011000 #
b1111111 !
b11110011 "
b11110111 "
b11110110 "
b1101111 !
b1101110 !
b1101010 !
b11100110 "
b101010 !
b10011001 #
b10011101 #
0[
1}
0*!
06!
1S
1P
1N
0X
1n
0z
1)!
05!
0O!
14
0h
1^
1"!
1~
1.!
18!
07!
1_!
1N!
1E!
1r
1f
1Y
1T
1`
0b
0k
1s
1e
0Z
1u
1#!
0t
1o
0$!
0|
0{
10!
1,!
0=!
0:!
0W!
0Q!
0l
0/!
0'!
19!
00!
1:!
1a!
1Q!
1P!
0G!
0H!
17!
0u
1h
1b!
11!
0%!
1{
1Z
1c!
0J!
12!
0w
0^
1x
13!
0?!
0X!
10!
0F!
0:!
0`!
0Q!
1i
1^
0m
0(!
1y
14!
0@!
0Y!
0A
0?
1>
1<
0=
0;
1G!
0a!
0%
0'
1(
1*
0)
0+
#135000
b11101 #
b1010 !
b11100100 "
b10100100 "
b1011101 #
b10000100 "
b10 !
b10001100 "
b10001000 "
b110 !
b10011000 "
b1000110 !
b1011001 #
0p
0}
1*!
16!
0B!
0M!
1z
0)!
0A!
1O!
0P
1L
0M
04
1w
0~
07!
1J!
1H!
1$!
1|
00!
0,!
0G!
0D!
1W!
1Q!
1g
0`
0Y
1'!
0<!
0K!
0I!
1%!
01!
03!
1X!
1^!
17!
1-!
0b!
0S!
0v
0Z
0J!
02!
0c!
0T!
0w
0^
1(!
0L!
04!
1Y!
1A
0>
0@
1=
1%
0(
0&
1)
#140000
b1011011 #
b1001011 #
b1010110 !
b1010111 !
b1001010 #
b11001010 #
b1110111 !
b10011010 "
b11011010 "
b11010010 "
b11010110 "
b1110011 !
1p
1}
0*!
1M!
1X
0z
15!
1A!
0S
1R
0N
1M
14
0r
0"!
1!!
1~
0.!
0N!
0h
0s
0e
1^
1Z
0$!
0|
0{
1=!
1:!
07!
0H!
1G!
1D!
0_!
0E!
08!
0g
0f
1Y
1W
0T
1/!
1$!
0'!
09!
10!
0Q!
0i
1k
0^
1?!
1<!
1K!
1a!
0G!
0:!
0^!
17!
0-!
0!!
1u
1S!
1b!
0U!
0;!
11!
1{
00!
0%!
1F!
1:!
01!
1l
0b!
1v
1T!
1c!
12!
0(!
1@!
1L!
1@
1?
0=
0P!
1G!
02!
0c!
1w
1U!
1&
1'
0)
1m
1;
1`!
1Q!
1+
0a!
#145000
b1010110 "
b11110011 !
b11110001 !
b1010111 "
b11001110 #
b11100001 !
b10111 "
b10011 "
b11100101 !
1P
0n
1z
05!
1Z!
1[
0}
0M!
0[!
04
1f
0u
0#!
1t
0o
0/!
0$!
0~
1|
0=!
0:!
07!
1a!
1]!
1h
0R!
0S!
1-!
0h
0v
1/!
1$!
0x
10!
1'!
0?!
0<!
1d!
1i
0T!
11!
0i
0w
00!
0U!
0y
1(!
0@!
1e!
1B
0?
1=
0<
12!
1$
0'
1)
0*
#150000
b11000110 #
b10000110 #
b110011 "
b11101101 !
b100011 "
b10101101 !
b10101100 !
b10001100 !
b101011 "
b10000010 #
b10011100 !
b1101011 "
0X
1)!
15!
0A!
0O!
1*!
06!
1B!
1M!
0P
0Q
0L
14
0k
1s
1e
1^
10!
0-!
1,!
1=!
1:!
0G!
0D!
0C!
0W!
0V!
1S!
0Q!
1.!
1E!
1N!
0f
0W
0\!
1r
0l
01!
13!
1?!
0K!
0X!
19!
00!
1G!
1Q!
1-!
02!
0F!
0:!
11!
0m
14!
1@!
0L!
0Y!
0A
0@
1?
1>
0;
1P!
0G!
12!
0%
0&
1'
1(
0+
0`!
0Q!
0a!
#155000
b10000011 #
b1101001 "
b10011110 !
b1101000 "
b10011010 !
b11000011 #
b10010010 !
b10010011 !
b11000111 #
b10000011 !
1X
1n
0z
0)!
05!
0[
0p
1S
1P
1L
04
1k
0s
0e
0^
1#!
0t
1o
0$!
1~
0|
09!
10!
0-!
0,!
0=!
1F!
1:!
1_!
0N!
0E!
18!
0.!
1"!
1f
1l
1t
0/!
1x
0'!
01!
03!
0?!
0P!
1a!
1`!
1Q!
00!
17!
1!!
10!
02!
0Q!
0a!
1<!
1%!
1m
1y
0(!
04!
0@!
0?
0>
0=
1<
1;
0'
0(
0)
1*
1+
