simulation/qsim/ula.msim.vcd
$comment
	File created using the following command:
		vcd file ula.msim.vcd -direction
$end
$date
	Mon Aug 06 03:43:02 2018
$end
$version
	ModelSim Version 10.3d
$end
$timescale
	1ps
$end

$scope module ula_vlg_vec_tst $end
$var reg 8 ! e1 [7:0] $end
$var reg 8 " e2 [7:0] $end
$var reg 8 # op [7:0] $end
$var wire 1 $ s1 [7] $end
$var wire 1 % s1 [6] $end
$var wire 1 & s1 [5] $end
$var wire 1 ' s1 [4] $end
$var wire 1 ( s1 [3] $end
$var wire 1 ) s1 [2] $end
$var wire 1 * s1 [1] $end
$var wire 1 + s1 [0] $end
$var wire 1 , s2 [7] $end
$var wire 1 - s2 [6] $end
$var wire 1 . s2 [5] $end
$var wire 1 / s2 [4] $end
$var wire 1 0 s2 [3] $end
$var wire 1 1 s2 [2] $end
$var wire 1 2 s2 [1] $end
$var wire 1 3 s2 [0] $end
$var wire 1 4 sampler $end

$scope module i1 $end
$var wire 1 5 gnd $end
$var wire 1 6 vcc $end
$var wire 1 7 unknown $end
$var tri1 1 8 devclrn $end
$var tri1 1 9 devpor $end
$var tri1 1 : devoe $end
$var wire 1 ; Mult0|auto_generated|mac_out2~0 $end
$var wire 1 < Mult0|auto_generated|mac_out2~1 $end
$var wire 1 = s1[0]~output_o $end
$var wire 1 > s1[1]~output_o $end
$var wire 1 ? s1[2]~output_o $end
$var wire 1 @ s1[3]~output_o $end
$var wire 1 A s1[4]~output_o $end
$var wire 1 B s1[5]~output_o $end
$var wire 1 C s1[6]~output_o $end
$var wire 1 D s1[7]~output_o $end
$var wire 1 E s2[0]~output_o $end
$var wire 1 F s2[1]~output_o $end
$var wire 1 G s2[2]~output_o $end
$var wire 1 H s2[3]~output_o $end
$var wire 1 I s2[4]~output_o $end
$var wire 1 J s2[5]~output_o $end
$var wire 1 K s2[6]~output_o $end
$var wire 1 L s2[7]~output_o $end
$var wire 1 M op[0]~input_o $end
$var wire 1 N op[3]~input_o $end
$var wire 1 O e1[0]~input_o $end
$var wire 1 P e2[0]~input_o $end
$var wire 1 Q Mux8~0_combout $end
$var wire 1 R op[1]~input_o $end
$var wire 1 S e1[1]~input_o $end
$var wire 1 T e1[2]~input_o $end
$var wire 1 U e1[3]~input_o $end
$var wire 1 V e1[4]~input_o $end
$var wire 1 W e1[5]~input_o $end
$var wire 1 X e1[6]~input_o $end
$var wire 1 Y e1[7]~input_o $end
$var wire 1 Z e2[1]~input_o $end
$var wire 1 [ e2[2]~input_o $end
$var wire 1 \ e2[3]~input_o $end
$var wire 1 ] e2[4]~input_o $end
$var wire 1 ^ e2[5]~input_o $end
$var wire 1 _ e2[6]~input_o $end
$var wire 1 ` e2[7]~input_o $end
$var wire 1 a Mult0|auto_generated|mac_mult1~dataout $end
$var wire 1 b Mult0|auto_generated|mac_mult1~DATAOUT1 $end
$var wire 1 c Mult0|auto_generated|mac_mult1~DATAOUT2 $end
$var wire 1 d Mult0|auto_generated|mac_mult1~DATAOUT3 $end
$var wire 1 e Mult0|auto_generated|mac_mult1~DATAOUT4 $end
$var wire 1 f Mult0|auto_generated|mac_mult1~DATAOUT5 $end
$var wire 1 g Mult0|auto_generated|mac_mult1~DATAOUT6 $end
$var wire 1 h Mult0|auto_generated|mac_mult1~DATAOUT7 $end
$var wire 1 i Mult0|auto_generated|mac_mult1~DATAOUT8 $end
$var wire 1 j Mult0|auto_generated|mac_mult1~DATAOUT9 $end
$var wire 1 k Mult0|auto_generated|mac_mult1~DATAOUT10 $end
$var wire 1 l Mult0|auto_generated|mac_mult1~DATAOUT11 $end
$var wire 1 m Mult0|auto_generated|mac_mult1~DATAOUT12 $end
$var wire 1 n Mult0|auto_generated|mac_mult1~DATAOUT13 $end
$var wire 1 o Mult0|auto_generated|mac_mult1~DATAOUT14 $end
$var wire 1 p Mult0|auto_generated|mac_mult1~DATAOUT15 $end
$var wire 1 q Mult0|auto_generated|mac_mult1~0 $end
$var wire 1 r Mult0|auto_generated|mac_mult1~1 $end
$var wire 1 s Mult0|auto_generated|mac_out2~DATAOUT8 $end
$var wire 1 t Add0~1 $end
$var wire 1 u Add0~3 $end
$var wire 1 v Add0~5 $end
$var wire 1 w Add0~7 $end
$var wire 1 x Add0~9 $end
$var wire 1 y Add0~11 $end
$var wire 1 z Add0~13 $end
$var wire 1 { Add0~15 $end
$var wire 1 | Add0~16_combout $end
$var wire 1 } Mux25~0_combout $end
$var wire 1 ~ op[4]~input_o $end
$var wire 1 !! op[5]~input_o $end
$var wire 1 "! op[6]~input_o $end
$var wire 1 #! op[7]~input_o $end
$var wire 1 $! Mux16~0_combout $end
$var wire 1 %! op[2]~input_o $end
$var wire 1 &! Mux16~1_combout $end
$var wire 1 '! Mux16~2_combout $end
$var wire 1 (! Mux16~2clkctrl_outclk $end
$var wire 1 )! Add1~0_combout $end
$var wire 1 *! Add1~1_combout $end
$var wire 1 +! Add1~2_combout $end
$var wire 1 ,! Add1~4_cout $end
$var wire 1 -! Add1~5_combout $end
$var wire 1 .! Mux8~1_combout $end
$var wire 1 /! Mux8~2_combout $end
$var wire 1 0! LessThan1~1_cout $end
$var wire 1 1! LessThan1~3_cout $end
$var wire 1 2! LessThan1~5_cout $end
$var wire 1 3! LessThan1~7_cout $end
$var wire 1 4! LessThan1~9_cout $end
$var wire 1 5! LessThan1~11_cout $end
$var wire 1 6! LessThan1~13_cout $end
$var wire 1 7! LessThan1~14_combout $end
$var wire 1 8! LessThan0~1_cout $end
$var wire 1 9! LessThan0~3_cout $end
$var wire 1 :! LessThan0~5_cout $end
$var wire 1 ;! LessThan0~7_cout $end
$var wire 1 <! LessThan0~9_cout $end
$var wire 1 =! LessThan0~11_cout $end
$var wire 1 >! LessThan0~13_cout $end
$var wire 1 ?! LessThan0~14_combout $end
$var wire 1 @! Mux8~3_combout $end
$var wire 1 A! Mux8~4_combout $end
$var wire 1 B! Mux9~2_combout $end
$var wire 1 C! Add0~0_combout $end
$var wire 1 D! Mux9~3_combout $end
$var wire 1 E! Equal0~3_combout $end
$var wire 1 F! Equal0~2_combout $end
$var wire 1 G! Equal0~0_combout $end
$var wire 1 H! Equal0~1_combout $end
$var wire 1 I! Equal0~4_combout $end
$var wire 1 J! Mux9~1_combout $end
$var wire 1 K! Mux9~4_combout $end
$var wire 1 L! Mux9~0_combout $end
$var wire 1 M! Mux9~5_combout $end
$var wire 1 N! Mux9~6_combout $end
$var wire 1 O! Mux8~5_combout $end
$var wire 1 P! Mux8~7_combout $end
$var wire 1 Q! Mux8~8_combout $end
$var wire 1 R! Mult0|auto_generated|mac_out2~DATAOUT9 $end
$var wire 1 S! Mux26~0_combout $end
$var wire 1 T! Mux8~6_combout $end
$var wire 1 U! Mux8~20_combout $end
$var wire 1 V! Mux8~12_combout $end
$var wire 1 W! Add1~7_combout $end
$var wire 1 X! Add1~6 $end
$var wire 1 Y! Add1~8_combout $end
$var wire 1 Z! Mux8~13_combout $end
$var wire 1 [! Mux8~14_combout $end
$var wire 1 \! Mux8~15_combout $end
$var wire 1 ]! Mux8~16_combout $end
$var wire 1 ^! Mux8~17_combout $end
$var wire 1 _! Mux8~11_combout $end
$var wire 1 `! Mux8~18_combout $end
$var wire 1 a! Mux8~9_combout $end
$var wire 1 b! Mux8~10_combout $end
$var wire 1 c! Mux8~19_combout $end
$var wire 1 d! Mux8~21_combout $end
$var wire 1 e! Mult0|auto_generated|mac_out2~DATAOUT10 $end
$var wire 1 f! Mux27~0_combout $end
$var wire 1 g! Mux7~0_combout $end
$var wire 1 h! Mux7~1_combout $end
$var wire 1 i! Add1~10_combout $end
$var wire 1 j! Add1~9 $end
$var wire 1 k! Add1~11_combout $end
$var wire 1 l! Mux7~3_combout $end
$var wire 1 m! Mux7~4_combout $end
$var wire 1 n! Mux7~2_combout $end
$var wire 1 o! Mux7~5_combout $end
$var wire 1 p! Mux7~6_combout $end
$var wire 1 q! Mux7~7_combout $end
$var wire 1 r! Mult0|auto_generated|mac_out2~DATAOUT11 $end
$var wire 1 s! Mux28~0_combout $end
$var wire 1 t! Mux6~0_combout $end
$var wire 1 u! Mux6~2_combout $end
$var wire 1 v! Add1~13_combout $end
$var wire 1 w! Add1~12 $end
$var wire 1 x! Add1~14_combout $end
$var wire 1 y! Mux6~3_combout $end
$var wire 1 z! Mux6~4_combout $end
$var wire 1 {! Mux6~5_combout $end
$var wire 1 |! Mux6~1_combout $end
$var wire 1 }! Mux6~6_combout $end
$var wire 1 ~! Mux6~7_combout $end
$var wire 1 !" Mux5~2_combout $end
$var wire 1 "" Add1~16_combout $end
$var wire 1 #" Add1~15 $end
$var wire 1 $" Add1~17_combout $end
$var wire 1 %" Mux5~3_combout $end
$var wire 1 &" Mux5~4_combout $end
$var wire 1 '" Mux5~5_combout $end
$var wire 1 (" Mux5~1_combout $end
$var wire 1 )" Mux5~6_combout $end
$var wire 1 *" Mult0|auto_generated|mac_out2~DATAOUT12 $end
$var wire 1 +" Mux29~0_combout $end
$var wire 1 ," Mux5~0_combout $end
$var wire 1 -" Mux5~7_combout $end
$var wire 1 ." Mult0|auto_generated|mac_out2~DATAOUT13 $end
$var wire 1 /" Mux30~0_combout $end
$var wire 1 0" Mux4~0_combout $end
$var wire 1 1" Mux4~1_combout $end
$var wire 1 2" Mux4~2_combout $end
$var wire 1 3" Add1~19_combout $end
$var wire 1 4" Add1~18 $end
$var wire 1 5" Add1~20_combout $end
$var wire 1 6" Mux4~3_combout $end
$var wire 1 7" Mux4~4_combout $end
$var wire 1 8" Mux4~5_combout $end
$var wire 1 9" Mux4~6_combout $end
$var wire 1 :" Mux4~7_combout $end
$var wire 1 ;" Mult0|auto_generated|mac_out2~DATAOUT14 $end
$var wire 1 <" Mux31~0_combout $end
$var wire 1 =" Mux3~0_combout $end
$var wire 1 >" Add1~22_combout $end
$var wire 1 ?" Add1~21 $end
$var wire 1 @" Add1~23_combout $end
$var wire 1 A" Mux3~3_combout $end
$var wire 1 B" Mux3~4_combout $end
$var wire 1 C" Mux3~2_combout $end
$var wire 1 D" Mux3~5_combout $end
$var wire 1 E" Mux3~1_combout $end
$var wire 1 F" Mux3~6_combout $end
$var wire 1 G" Mux3~7_combout $end
$var wire 1 H" Mult0|auto_generated|mac_out2~DATAOUT15 $end
$var wire 1 I" Mux32~0_combout $end
$var wire 1 J" Mux2~0_combout $end
$var wire 1 K" Add1~27_combout $end
$var wire 1 L" Add1~25_combout $end
$var wire 1 M" Add1~26_combout $end
$var wire 1 N" Add1~24 $end
$var wire 1 O" Add1~28_combout $end
$var wire 1 P" Mux2~3_combout $end
$var wire 1 Q" Mux2~4_combout $end
$var wire 1 R" Mux2~2_combout $end
$var wire 1 S" Mux2~5_combout $end
$var wire 1 T" Mux2~1_combout $end
$var wire 1 U" Mux2~6_combout $end
$var wire 1 V" Mux2~7_combout $end
$var wire 1 W" Mux17~6_combout $end
$var wire 1 X" Mult0|auto_generated|mac_out2~dataout $end
$var wire 1 Y" Mux17~4_combout $end
$var wire 1 Z" Mux17~5_combout $end
$var wire 1 [" s2[0]$latch~combout $end
$var wire 1 \" Mult0|auto_generated|mac_out2~DATAOUT1 $end
$var wire 1 ]" Add0~2_combout $end
$var wire 1 ^" Mux18~0_combout $end
$var wire 1 _" s2[1]$latch~combout $end
$var wire 1 `" Mult0|auto_generated|mac_out2~DATAOUT2 $end
$var wire 1 a" Add0~4_combout $end
$var wire 1 b" Mux19~0_combout $end
$var wire 1 c" s2[2]$latch~combout $end
$var wire 1 d" Mult0|auto_generated|mac_out2~DATAOUT3 $end
$var wire 1 e" Add0~6_combout $end
$var wire 1 f" Mux20~0_combout $end
$var wire 1 g" s2[3]$latch~combout $end
$var wire 1 h" Mult0|auto_generated|mac_out2~DATAOUT4 $end
$var wire 1 i" Add0~8_combout $end
$var wire 1 j" Mux21~0_combout $end
$var wire 1 k" s2[4]$latch~combout $end
$var wire 1 l" Mult0|auto_generated|mac_out2~DATAOUT5 $end
$var wire 1 m" Add0~10_combout $end
$var wire 1 n" Mux22~0_combout $end
$var wire 1 o" s2[5]$latch~combout $end
$var wire 1 p" Mult0|auto_generated|mac_out2~DATAOUT6 $end
$var wire 1 q" Add0~12_combout $end
$var wire 1 r" Mux23~0_combout $end
$var wire 1 s" s2[6]$latch~combout $end
$var wire 1 t" Mult0|auto_generated|mac_out2~DATAOUT7 $end
$var wire 1 u" Add0~14_combout $end
$var wire 1 v" Mux24~0_combout $end
$var wire 1 w" s2[7]$latch~combout $end
$var wire 1 x" saida_aux [15] $end
$var wire 1 y" saida_aux [14] $end
$var wire 1 z" saida_aux [13] $end
$var wire 1 {" saida_aux [12] $end
$var wire 1 |" saida_aux [11] $end
$var wire 1 }" saida_aux [10] $end
$var wire 1 ~" saida_aux [9] $end
$var wire 1 !# saida_aux [8] $end
$var wire 1 "# saida_aux [7] $end
$var wire 1 ## saida_aux [6] $end
$var wire 1 $# saida_aux [5] $end
$var wire 1 %# saida_aux [4] $end
$var wire 1 &# saida_aux [3] $end
$var wire 1 '# saida_aux [2] $end
$var wire 1 (# saida_aux [1] $end
$var wire 1 )# saida_aux [0] $end
$var wire 1 *# Mult0|auto_generated|mac_out2_DATAOUT_bus [17] $end
$var wire 1 +# Mult0|auto_generated|mac_out2_DATAOUT_bus [16] $end
$var wire 1 ,# Mult0|auto_generated|mac_out2_DATAOUT_bus [15] $end
$var wire 1 -# Mult0|auto_generated|mac_out2_DATAOUT_bus [14] $end
$var wire 1 .# Mult0|auto_generated|mac_out2_DATAOUT_bus [13] $end
$var wire 1 /# Mult0|auto_generated|mac_out2_DATAOUT_bus [12] $end
$var wire 1 0# Mult0|auto_generated|mac_out2_DATAOUT_bus [11] $end
$var wire 1 1# Mult0|auto_generated|mac_out2_DATAOUT_bus [10] $end
$var wire 1 2# Mult0|auto_generated|mac_out2_DATAOUT_bus [9] $end
$var wire 1 3# Mult0|auto_generated|mac_out2_DATAOUT_bus [8] $end
$var wire 1 4# Mult0|auto_generated|mac_out2_DATAOUT_bus [7] $end
$var wire 1 5# Mult0|auto_generated|mac_out2_DATAOUT_bus [6] $end
$var wire 1 6# Mult0|auto_generated|mac_out2_DATAOUT_bus [5] $end
$var wire 1 7# Mult0|auto_generated|mac_out2_DATAOUT_bus [4] $end
$var wire 1 8# Mult0|auto_generated|mac_out2_DATAOUT_bus [3] $end
$var wire 1 9# Mult0|auto_generated|mac_out2_DATAOUT_bus [2] $end
$var wire 1 :# Mult0|auto_generated|mac_out2_DATAOUT_bus [1] $end
$var wire 1 ;# Mult0|auto_generated|mac_out2_DATAOUT_bus [0] $end
$var wire 1 <# Mult0|auto_generated|mac_mult1_DATAOUT_bus [17] $end
$var wire 1 =# Mult0|auto_generated|mac_mult1_DATAOUT_bus [16] $end
$var wire 1 ># Mult0|auto_generated|mac_mult1_DATAOUT_bus [15] $end
$var wire 1 ?# Mult0|auto_generated|mac_mult1_DATAOUT_bus [14] $end
$var wire 1 @# Mult0|auto_generated|mac_mult1_DATAOUT_bus [13] $end
$var wire 1 A# Mult0|auto_generated|mac_mult1_DATAOUT_bus [12] $end
$var wire 1 B# Mult0|auto_generated|mac_mult1_DATAOUT_bus [11] $end
$var wire 1 C# Mult0|auto_generated|mac_mult1_DATAOUT_bus [10] $end
$var wire 1 D# Mult0|auto_generated|mac_mult1_DATAOUT_bus [9] $end
$var wire 1 E# Mult0|auto_generated|mac_mult1_DATAOUT_bus [8] $end
$var wire 1 F# Mult0|auto_generated|mac_mult1_DATAOUT_bus [7] $end
$var wire 1 G# Mult0|auto_generated|mac_mult1_DATAOUT_bus [6] $end
$var wire 1 H# Mult0|auto_generated|mac_mult1_DATAOUT_bus [5] $end
$var wire 1 I# Mult0|auto_generated|mac_mult1_DATAOUT_bus [4] $end
$var wire 1 J# Mult0|auto_generated|mac_mult1_DATAOUT_bus [3] $end
$var wire 1 K# Mult0|auto_generated|mac_mult1_DATAOUT_bus [2] $end
$var wire 1 L# Mult0|auto_generated|mac_mult1_DATAOUT_bus [1] $end
$var wire 1 M# Mult0|auto_generated|mac_mult1_DATAOUT_bus [0] $end
$upscope $end
$upscope $end
$enddefinitions $end
#0
$dumpvars
b11111111 !
b1 "
b0 #
1+
0*
0)
0(
0'
0&
0%
0$
03
02
01
00
0/
0.
0-
0,
x4
05
16
x7
18
19
1:
0;
0<
1=
0>
0?
0@
0A
0B
0C
0D
0E
0F
0G
0H
0I
0J
0K
0L
0M
0N
1O
1P
1Q
0R
1S
1T
1U
1V
1W
1X
1Y
0Z
0[
0\
0]
0^
0_
0`
1a
1b
1c
1d
1e
1f
1g
1h
0i
0j
0k
0l
0m
0n
0o
0p
0q
0r
0s
1t
0u
1v
0w
1x
0y
1z
0{
1|
1}
0~
0!!
0"!
0#!
1$!
0%!
0&!
1'!
1(!
0)!
1*!
0+!
0,!
1-!
1.!
1/!
00!
01!
12!
03!
14!
05!
16!
17!
08!
19!
0:!
1;!
0<!
1=!
0>!
0?!
0@!
1A!
1B!
0C!
1D!
0E!
0F!
0G!
0H!
0I!
0J!
1K!
0L!
0M!
1N!
0O!
0P!
0Q!
0R!
0S!
0T!
0U!
0V!
1W!
1X!
0Y!
0Z!
0[!
1\!
0]!
0^!
1_!
0`!
1a!
0b!
0c!
0d!
0e!
0f!
0g!
1h!
1i!
1j!
1k!
0l!
0m!
1n!
0o!
0p!
0q!
0r!
0s!
0t!
1u!
1v!
0w!
1x!
0y!
0z!
0{!
1|!
0}!
0~!
1!"
1""
1#"
1$"
0%"
0&"
0'"
1("
0)"
0*"
0+"
0,"
0-"
0."
0/"
00"
11"
12"
13"
04"
15"
06"
07"
08"
09"
0:"
0;"
0<"
0="
1>"
1?"
1@"
0A"
0B"
1C"
0D"
1E"
0F"
0G"
0H"
0I"
0J"
1K"
0L"
0M"
0N"
0O"
0P"
0Q"
1R"
0S"
1T"
0U"
0V"
1W"
1X"
0Y"
0Z"
0["
1\"
0]"
0^"
0_"
1`"
0a"
0b"
0c"
1d"
0e"
0f"
0g"
1h"
0i"
0j"
0k"
1l"
0m"
0n"
0o"
1p"
0q"
0r"
0s"
1t"
0u"
0v"
0w"
0)#
0(#
0'#
0&#
0%#
0$#
0##
0"#
1!#
0~"
0}"
0|"
0{"
0z"
0y"
0x"
0;#
0:#
19#
18#
17#
16#
15#
14#
13#
12#
01#
00#
0/#
0.#
0-#
0,#
0+#
0*#
0M#
0L#
1K#
1J#
1I#
1H#
1G#
1F#
1E#
1D#
0C#
0B#
0A#
0@#
0?#
0>#
0=#
0<#
$end
#5000
b11111011 !
b11111001 !
b10001 "
b10101 "
1[
1]
0S
0T
1?#
1A#
0D#
0G#
0J#
0b
0e
0h
1k
1m
1-#
1/#
02#
05#
08#
0\"
0h"
0t"
1e!
1*"
04
0i!
1:!
02!
0("
1&"
0""
1i"
0n!
0a!
0j!
1Y!
1G!
11!
1u
1]"
0u!
0k!
1w!
1'"
0$"
1j"
0v
1a"
1^"
0x!
1)"
1%#
1w
1e"
1b"
1(#
0i"
1f"
1'#
1k"
1_"
1F
1I
0j"
1&#
12
1/
1c"
1G
0%#
11
1g"
1H
10
0k"
0I
0/
#10000
b10111001 !
b10101001 !
b110101 "
b110111 "
b10101011 !
b110011 "
1Z
0[
1^
1S
0V
0X
1>#
0?#
0A#
1B#
0E#
0F#
1G#
0H#
0I#
0c
0d
1e
0f
0g
1j
0k
0m
1n
1,#
0-#
0/#
10#
03#
04#
15#
06#
07#
0`"
0d"
1h"
0l"
0p"
1R!
0e!
0*"
1."
14
1]!
0W!
0u
1i!
0h!
0:!
0a"
17"
03"
01"
1m"
1n!
1j!
0Y!
02"
1("
0&"
14"
1$"
1<!
04!
0x
1i"
0R"
0E"
0@"
0z
1q"
1`!
0j!
1Y!
1a"
0w!
0b"
18"
0?"
1n"
0'"
0=!
15!
0m"
1j"
1{
1u"
1r"
1c!
1w!
1k!
1b"
1x!
0'#
19"
1N"
1@"
1$#
0)"
1>!
06!
0n"
1%#
0|
1v"
1##
0x!
1'#
1O"
0$#
0}
1"#
0c"
1o"
1k"
1s"
1K
1I
1J
0G
0!#
1-
1/
1.
01
1c"
0o"
1w"
1L
0J
1G
0.!
1,
0.
11
0/!
0A!
0N!
0=
0+
#15000
b10110011 "
b10010011 "
b10010001 "
b10101001 !
b10010101 "
0S
0Z
1[
0^
1`
1=#
1E#
1H#
1I#
1c
1d
1g
1o
1+#
13#
16#
17#
1`"
1d"
1p"
1;"
04
0n!
0]!
0Y!
1u
1W!
0i!
1h!
1:!
1v
0a"
07"
13"
11"
1=!
05!
1y
1m"
0T"
1Q"
0K"
1E!
1?!
07!
0{
0u"
0`!
0v
1a"
1Y!
0k!
0w
0e"
0b"
08"
1?"
05"
0>!
16!
0q"
1n"
1S"
0O"
1@!
1|
0v"
0c!
1w
1e"
1b"
1x
0i"
0f"
0'#
09"
0N"
0@"
0?!
17!
0r"
1$#
1U"
1}
0"#
0x
1i"
1f"
1'#
0y
0m"
0j"
0&#
1O"
0@!
0##
1!#
0c"
1o"
0w"
0L
1J
0G
1y
1m"
1j"
1&#
1q"
0n"
0%#
1.!
0,
1.
01
1c"
0g"
0s"
0K
0H
1G
0q"
1n"
1%#
1r"
0$#
1/!
0-
00
11
1g"
0k"
0I
1H
0r"
1$#
1##
1A!
0/
10
1k"
0o"
0J
1I
0##
0.
1/
1o"
1s"
1N!
1=
1K
1J
1+
1-
1.
0s"
0K
0-
#20000
b101001 !
b1001 !
b1 !
b10011101 "
b10011100 "
b1000001 !
b10011110 "
b10011010 "
0P
1Z
0[
1\
0U
0W
1X
0Y
0=#
1A#
1C#
0E#
0I#
1J#
0K#
0a
1b
0c
0g
1i
1k
0o
0+#
1/#
11#
03#
07#
18#
09#
0X"
1\"
0`"
0p"
1s
1e!
0;"
14
0G!
10!
1)!
0t
1C!
0Q
1a!
0W!
09!
0u
0]"
1i!
0h!
0:!
0a"
0v!
0;!
13!
0!"
0#"
1x!
0C"
0?"
15"
01"
0=!
15!
0m"
1R"
1E"
1@"
0E!
1q"
1T"
0Q"
1?!
07!
1{
1u"
0X!
0-!
1u
1]"
1Y"
0D!
0Y!
1:!
1a"
0^"
1k!
0b"
0x!
0$"
0@"
0n"
0S"
1r"
1@!
0|
1v"
1Y!
0a"
1^"
1Z"
1b"
0(#
0'#
0$#
0U"
1##
0}
1"#
0b"
1(#
1)#
1'#
0!#
0_"
0c"
0o"
1s"
1w"
1L
1K
0J
0G
0F
0'#
0.!
1,
1-
0.
01
02
1_"
1["
1c"
1G
1E
1F
0/!
11
13
12
0c"
0G
0A!
01
0N!
0=
0+
#25000
b1000000 !
b1000100 !
b10001010 "
b1010100 !
b1010 "
b101010 "
b11010100 !
0]
1^
0`
0O
1T
1V
1Y
0A#
0C#
1D#
1E#
0G#
0J#
0b
0e
1g
1h
0i
0k
0/#
01#
12#
13#
05#
08#
0\"
0h"
1p"
1t"
0s
0e!
04
1""
0<!
14!
03"
11"
1m"
1K"
0?!
17!
0_!
0B!
00!
1X!
1-!
0C!
1u!
0w!
0k!
1h!
0:!
12!
1a"
12"
1$"
04"
0$"
05"
1n"
0O"
0@!
0K!
0Y!
0Y"
1x!
1b"
15"
1$#
0Z"
1'#
0)#
1o"
1c"
1G
1J
11
1.
0["
0E
03
#30000
b1101010 "
b11010110 !
b11110110 !
b1100010 "
b10110110 !
b1100000 "
b10110111 !
b10110011 !
b10100011 !
b11100000 "
1O
1S
0T
0V
1W
0X
0Z
0\
1_
1`
1<#
0>#
1@#
1A#
0E#
1F#
0H#
0d
1f
0g
1k
1l
0n
1p
1*#
0,#
1.#
1/#
03#
14#
06#
0d"
1l"
0p"
1e!
1r!
0."
1H"
14
1_!
1B!
10!
0X!
0-!
1C!
1n!
1Y!
19!
01!
0u!
1w!
1k!
0h!
1H!
1:!
02!
0a"
02"
0("
14"
1$"
1F!
1<!
04!
0i"
1C"
17"
1?"
05"
01"
1=!
05!
0y
0m"
0R"
1N"
1@"
1>!
06!
1W!
0|!
1v!
1;!
03!
0e"
0>"
0T"
1Q"
0K"
0{
0u"
1K!
1j!
1Y"
0:!
12!
0;!
13!
0b"
18"
0?"
15"
0=!
15!
0j"
1z
0q"
0n"
1S"
1?!
07!
0<!
14!
0f"
1|
0v"
0w!
0k!
1Z"
1;!
03!
1<!
04!
0'#
19"
0@"
0%#
1u"
0r"
0$#
1U"
1@!
1=!
05!
0&#
1}
0"#
1#"
0x!
1)#
0<!
14!
0=!
15!
1v"
0##
1!#
0c"
0k"
0o"
0g"
0w"
0L
0H
0J
0I
0G
04"
0$"
1=!
05!
1"#
1.!
0,
00
0.
0/
01
1["
0s"
0K
1E
1?"
05"
1/!
0-
13
1w"
1L
1@"
1A!
1,
1N!
1=
1+
#35000
b11100001 "
b11100101 "
b11110101 "
b10110101 "
b10100001 !
b10111101 "
b10100000 !
b10100100 !
b10110100 !
b111101 "
0O
0S
1T
1V
1P
1[
1\
1]
0_
0`
0<#
1>#
0A#
1E#
1I#
1c
1g
0k
1n
0p
0*#
1,#
0/#
13#
17#
1`"
1p"
0e!
1."
0H"
04
0_!
18!
00!
1X!
1-!
0n!
0a!
0Y!
0]"
1u!
1m!
1k!
0H!
1v
12"
1&"
1$"
1x
0)!
0i!
1|!
0v!
0;!
13!
1e"
0""
0E"
1>"
0>!
16!
0z
1q"
1T"
0Q"
1K"
0?!
17!
0u"
09!
11!
0j!
1Y!
1o!
0^"
0w
0e"
1'"
1m"
0-!
0k!
0#"
1x!
1<!
04!
1f"
0$"
0N"
0@"
1{
1u"
1r"
0S"
1O"
0@!
0v"
1:!
02!
1w!
1k!
1p!
0(#
1i"
0f"
1)"
1n"
14"
1$"
0=!
15!
1&#
0O"
0|
1v"
1##
0U"
0"#
0x!
1j"
0&#
1$#
0?"
15"
1>!
06!
0}
1"#
0_"
1g"
1s"
0w"
0L
1K
1H
0F
1%#
1N"
1@"
0!#
0,
1-
10
02
0g"
1o"
1w"
1L
1J
0H
1O"
0.!
1,
1.
00
1k"
1I
0/!
1/
0A!
0N!
0=
0+
#40000
b10111100 !
b111100 !
b11100 !
b1011100 !
b101101 "
b1011110 !
b100101 "
b1011111 !
0\
0]
1O
1S
1U
0W
1X
0Y
0>#
1A#
0B#
1C#
0E#
1G#
1H#
0I#
1J#
1K#
1a
1b
0c
1d
1e
0g
1i
0j
1k
0n
0,#
1/#
00#
11#
03#
15#
16#
07#
18#
19#
1X"
1\"
0`"
1d"
1h"
0p"
1s
0R!
1e!
0."
14
1v!
1;!
03!
1("
0&"
1""
0F!
0<!
14!
0i"
1_!
08!
1-!
1t
0C!
1Q
1n!
1a!
1j!
0Y!
19!
01!
1]"
1!"
1x!
0C"
07"
05"
11"
0m"
1R"
1E"
0N"
0@"
0>!
16!
1z
0q"
0T"
1?!
07!
0u"
1#"
0x!
0'"
04"
0$"
0j"
0u
0]"
0Y"
1D!
0w!
0k!
0:!
12!
1^"
08"
0n"
0O"
0?!
17!
1u"
0r"
1@!
0v"
1$"
0)"
15"
0%#
1a"
0^"
0Z"
1x!
1(#
09"
0$#
0@!
1v"
0##
0"#
1b"
0(#
0)#
1"#
0k"
1_"
0o"
0s"
0w"
0L
0K
0J
1F
0I
1'#
0,
0-
0.
12
0/
0_"
0["
1w"
1L
0E
0F
1,
03
02
1c"
1G
11
#45000
b100111 "
b1011011 !
b1010011 !
b11010011 !
b11110011 !
b10110011 !
b10110001 !
0S
0T
0U
1W
0X
1Y
1Z
1?#
0A#
1B#
0C#
1E#
0H#
1I#
1c
0d
1g
0i
1j
0k
1m
1-#
0/#
10#
01#
13#
06#
17#
1`"
0d"
1p"
0s
1R!
0e!
1*"
04
0n!
0j!
1Y!
09!
11!
0u!
0m!
1w!
1k!
1h!
1:!
02!
0a"
0!"
0|!
0x!
1w
1e"
1C"
17"
1?"
05"
01"
1=!
05!
1m"
0R"
0E"
1N"
1@"
1>!
06!
0z
1q"
1T"
0{
0u"
0W!
0o!
0k!
0#"
1x!
0;!
13!
0b"
0x
1i"
1f"
18"
0N"
0@"
0>!
16!
1n"
1O"
1{
1u"
1r"
1|
0v"
0Y!
0p!
0$"
0'#
0m"
1j"
1&#
19"
0O"
1$#
0|
1v"
1##
1}
0"#
0n"
1%#
0}
1"#
1!#
0c"
1g"
1o"
1s"
0w"
0L
1K
1J
1H
0G
0$#
0!#
1.!
0,
1-
1.
10
01
1k"
1w"
1L
1I
0.!
1/!
1,
1/
0o"
0J
0/!
1A!
0.
0A!
1N!
1=
1+
0N!
0=
0+
#50000
b1100111 "
b11100111 "
b10110000 !
b11100101 "
b10110100 !
b10111100 !
b10111110 !
0O
1S
1T
1U
0Z
1_
1`
1<#
1>#
0?#
0B#
1C#
0K#
0a
1i
0j
0m
1n
1p
1*#
1,#
0-#
00#
11#
09#
0X"
1s
0R!
0*"
1."
1H"
14
0_!
18!
0-!
0t
1C!
0Q
1n!
1Y!
19!
01!
1u!
1m!
1k!
0h!
1a"
1!"
1|!
1#"
0x!
1;!
03!
0w
0e"
1W!
1E"
0>"
1>!
06!
1z
0q"
0T"
1Q"
0K"
0{
0u"
1u
1]"
1Y"
0D!
1o!
0:!
12!
1b"
1$"
1x
0i"
0f"
1j!
0Y!
1N"
1@"
1?!
07!
1u"
0r"
1S"
1O"
1|
0v"
0a"
1^"
1Z"
1p!
1'#
1m"
0j"
0&#
0w!
0k!
0O"
1@!
1v"
0##
1U"
1}
0"#
0b"
1(#
1)#
1n"
0%#
1x!
1"#
1!#
1c"
0g"
0s"
0w"
0L
0K
0H
1G
0'#
1$#
1.!
0,
0-
00
11
1_"
1["
0k"
1w"
1L
0I
1E
1F
1/!
1,
0/
13
12
0c"
1o"
1J
0G
1A!
1.
01
1N!
1=
1+
