simulation/qsim/ula.msim.vcd
$comment
	File created using the following command:
		vcd file ula.msim.vcd -direction
$end
$date
	Mon Aug 06 01:34:43 2018
$end
$version
	ModelSim Version 10.3d
$end
$timescale
	1ps
$end

$scope module ula_vlg_vec_tst $end
$var reg 8 ! e1 [7:0] $end
$var reg 8 " e2 [7:0] $end
$var reg 8 # op [7:0] $end
$var wire 1 $ s1 [7] $end
$var wire 1 % s1 [6] $end
$var wire 1 & s1 [5] $end
$var wire 1 ' s1 [4] $end
$var wire 1 ( s1 [3] $end
$var wire 1 ) s1 [2] $end
$var wire 1 * s1 [1] $end
$var wire 1 + s1 [0] $end
$var wire 1 , s2 [7] $end
$var wire 1 - s2 [6] $end
$var wire 1 . s2 [5] $end
$var wire 1 / s2 [4] $end
$var wire 1 0 s2 [3] $end
$var wire 1 1 s2 [2] $end
$var wire 1 2 s2 [1] $end
$var wire 1 3 s2 [0] $end
$var wire 1 4 sampler $end

$scope module i1 $end
$var wire 1 5 gnd $end
$var wire 1 6 vcc $end
$var wire 1 7 unknown $end
$var tri1 1 8 devclrn $end
$var tri1 1 9 devpor $end
$var tri1 1 : devoe $end
$var wire 1 ; Mult0|auto_generated|mac_out2~0 $end
$var wire 1 < Mult0|auto_generated|mac_out2~1 $end
$var wire 1 = s1[0]~output_o $end
$var wire 1 > s1[1]~output_o $end
$var wire 1 ? s1[2]~output_o $end
$var wire 1 @ s1[3]~output_o $end
$var wire 1 A s1[4]~output_o $end
$var wire 1 B s1[5]~output_o $end
$var wire 1 C s1[6]~output_o $end
$var wire 1 D s1[7]~output_o $end
$var wire 1 E s2[0]~output_o $end
$var wire 1 F s2[1]~output_o $end
$var wire 1 G s2[2]~output_o $end
$var wire 1 H s2[3]~output_o $end
$var wire 1 I s2[4]~output_o $end
$var wire 1 J s2[5]~output_o $end
$var wire 1 K s2[6]~output_o $end
$var wire 1 L s2[7]~output_o $end
$var wire 1 M e2[7]~input_o $end
$var wire 1 N e1[7]~input_o $end
$var wire 1 O e2[6]~input_o $end
$var wire 1 P e1[6]~input_o $end
$var wire 1 Q e2[5]~input_o $end
$var wire 1 R e1[5]~input_o $end
$var wire 1 S e1[4]~input_o $end
$var wire 1 T e2[4]~input_o $end
$var wire 1 U e1[3]~input_o $end
$var wire 1 V e2[3]~input_o $end
$var wire 1 W e1[2]~input_o $end
$var wire 1 X e2[2]~input_o $end
$var wire 1 Y e1[1]~input_o $end
$var wire 1 Z e2[1]~input_o $end
$var wire 1 [ e1[0]~input_o $end
$var wire 1 \ e2[0]~input_o $end
$var wire 1 ] LessThan0~1_cout $end
$var wire 1 ^ LessThan0~3_cout $end
$var wire 1 _ LessThan0~5_cout $end
$var wire 1 ` LessThan0~7_cout $end
$var wire 1 a LessThan0~9_cout $end
$var wire 1 b LessThan0~11_cout $end
$var wire 1 c LessThan0~13_cout $end
$var wire 1 d LessThan0~14_combout $end
$var wire 1 e LessThan1~1_cout $end
$var wire 1 f LessThan1~3_cout $end
$var wire 1 g LessThan1~5_cout $end
$var wire 1 h LessThan1~7_cout $end
$var wire 1 i LessThan1~9_cout $end
$var wire 1 j LessThan1~11_cout $end
$var wire 1 k LessThan1~13_cout $end
$var wire 1 l LessThan1~14_combout $end
$var wire 1 m op[0]~input_o $end
$var wire 1 n op[1]~input_o $end
$var wire 1 o op[4]~input_o $end
$var wire 1 p op[3]~input_o $end
$var wire 1 q Mux8~4_combout $end
$var wire 1 r Mux8~5_combout $end
$var wire 1 s Mux8~6_combout $end
$var wire 1 t Mux8~7_combout $end
$var wire 1 u op[2]~input_o $end
$var wire 1 v Mux8~8_combout $end
$var wire 1 w op[5]~input_o $end
$var wire 1 x op[7]~input_o $end
$var wire 1 y op[6]~input_o $end
$var wire 1 z Mux16~0_combout $end
$var wire 1 { Mux9~3_combout $end
$var wire 1 | Add0~0_combout $end
$var wire 1 } Mux9~2_combout $end
$var wire 1 ~ Add0~1_combout $end
$var wire 1 !! Add0~3_cout $end
$var wire 1 "! Add0~4_combout $end
$var wire 1 #! Mux9~4_combout $end
$var wire 1 $! Mux16~1_combout $end
$var wire 1 %! Mult0|auto_generated|mac_mult1~dataout $end
$var wire 1 &! Mult0|auto_generated|mac_mult1~DATAOUT1 $end
$var wire 1 '! Mult0|auto_generated|mac_mult1~DATAOUT2 $end
$var wire 1 (! Mult0|auto_generated|mac_mult1~DATAOUT3 $end
$var wire 1 )! Mult0|auto_generated|mac_mult1~DATAOUT4 $end
$var wire 1 *! Mult0|auto_generated|mac_mult1~DATAOUT5 $end
$var wire 1 +! Mult0|auto_generated|mac_mult1~DATAOUT6 $end
$var wire 1 ,! Mult0|auto_generated|mac_mult1~DATAOUT7 $end
$var wire 1 -! Mult0|auto_generated|mac_mult1~DATAOUT8 $end
$var wire 1 .! Mult0|auto_generated|mac_mult1~DATAOUT9 $end
$var wire 1 /! Mult0|auto_generated|mac_mult1~DATAOUT10 $end
$var wire 1 0! Mult0|auto_generated|mac_mult1~DATAOUT11 $end
$var wire 1 1! Mult0|auto_generated|mac_mult1~DATAOUT12 $end
$var wire 1 2! Mult0|auto_generated|mac_mult1~DATAOUT13 $end
$var wire 1 3! Mult0|auto_generated|mac_mult1~DATAOUT14 $end
$var wire 1 4! Mult0|auto_generated|mac_mult1~DATAOUT15 $end
$var wire 1 5! Mult0|auto_generated|mac_mult1~0 $end
$var wire 1 6! Mult0|auto_generated|mac_mult1~1 $end
$var wire 1 7! Mult0|auto_generated|mac_out2~DATAOUT8 $end
$var wire 1 8! Mux16~2_combout $end
$var wire 1 9! Mux16~3_combout $end
$var wire 1 :! Mux16~3clkctrl_outclk $end
$var wire 1 ;! Equal0~0_combout $end
$var wire 1 <! Equal0~3_combout $end
$var wire 1 =! Equal0~1_combout $end
$var wire 1 >! Equal0~2_combout $end
$var wire 1 ?! Equal0~4_combout $end
$var wire 1 @! Mux8~2_combout $end
$var wire 1 A! Mux9~0_combout $end
$var wire 1 B! Mux8~3_combout $end
$var wire 1 C! Mux9~1_combout $end
$var wire 1 D! Mux9~5_combout $end
$var wire 1 E! Mux8~9_combout $end
$var wire 1 F! Mux8~13_combout $end
$var wire 1 G! Mux8~10_combout $end
$var wire 1 H! Add0~6_combout $end
$var wire 1 I! Add0~5 $end
$var wire 1 J! Add0~7_combout $end
$var wire 1 K! Mux8~11_combout $end
$var wire 1 L! Mux8~12_combout $end
$var wire 1 M! Mux8~14_combout $end
$var wire 1 N! Mux8~23_combout $end
$var wire 1 O! Mult0|auto_generated|mac_out2~DATAOUT9 $end
$var wire 1 P! Mux8~15_combout $end
$var wire 1 Q! Mux8~16_combout $end
$var wire 1 R! Mux8~17_combout $end
$var wire 1 S! Mux8~18_combout $end
$var wire 1 T! Mux8~19_combout $end
$var wire 1 U! Mux8~20_combout $end
$var wire 1 V! Add0~9_combout $end
$var wire 1 W! Mux8~21_combout $end
$var wire 1 X! Mux8~22_combout $end
$var wire 1 Y! Add0~10_combout $end
$var wire 1 Z! Add0~8 $end
$var wire 1 [! Add0~11_combout $end
$var wire 1 \! Mux7~2_combout $end
$var wire 1 ]! Mux7~3_combout $end
$var wire 1 ^! Mux7~9_combout $end
$var wire 1 _! Mult0|auto_generated|mac_out2~DATAOUT10 $end
$var wire 1 `! Mux7~4_combout $end
$var wire 1 a! Mux7~5_combout $end
$var wire 1 b! Mux7~6_combout $end
$var wire 1 c! Mux7~7_combout $end
$var wire 1 d! Mux7~8_combout $end
$var wire 1 e! Add0~13_combout $end
$var wire 1 f! Add0~12 $end
$var wire 1 g! Add0~14_combout $end
$var wire 1 h! Mux6~2_combout $end
$var wire 1 i! Mux6~3_combout $end
$var wire 1 j! Mux6~9_combout $end
$var wire 1 k! Mux6~5_combout $end
$var wire 1 l! Mux6~4_combout $end
$var wire 1 m! Mux6~6_combout $end
$var wire 1 n! Mult0|auto_generated|mac_out2~DATAOUT11 $end
$var wire 1 o! Mux6~7_combout $end
$var wire 1 p! Mux6~8_combout $end
$var wire 1 q! Add0~16_combout $end
$var wire 1 r! Add0~15 $end
$var wire 1 s! Add0~17_combout $end
$var wire 1 t! Mux5~2_combout $end
$var wire 1 u! Mux5~3_combout $end
$var wire 1 v! Mux5~9_combout $end
$var wire 1 w! Mult0|auto_generated|mac_out2~DATAOUT12 $end
$var wire 1 x! Mux5~5_combout $end
$var wire 1 y! Mux5~4_combout $end
$var wire 1 z! Mux5~6_combout $end
$var wire 1 {! Mux5~7_combout $end
$var wire 1 |! Mux5~8_combout $end
$var wire 1 }! Add0~19_combout $end
$var wire 1 ~! Add0~18 $end
$var wire 1 !" Add0~20_combout $end
$var wire 1 "" Mux4~2_combout $end
$var wire 1 #" Mux4~3_combout $end
$var wire 1 $" Mux4~9_combout $end
$var wire 1 %" Mult0|auto_generated|mac_out2~DATAOUT13 $end
$var wire 1 &" Mux4~5_combout $end
$var wire 1 '" Mux4~4_combout $end
$var wire 1 (" Mux4~6_combout $end
$var wire 1 )" Mux4~7_combout $end
$var wire 1 *" Mux4~8_combout $end
$var wire 1 +" Add0~22_combout $end
$var wire 1 ," Add0~21 $end
$var wire 1 -" Add0~23_combout $end
$var wire 1 ." Mux3~2_combout $end
$var wire 1 /" Mux3~3_combout $end
$var wire 1 0" Mux3~9_combout $end
$var wire 1 1" Mult0|auto_generated|mac_out2~DATAOUT14 $end
$var wire 1 2" Mux3~5_combout $end
$var wire 1 3" Mux3~4_combout $end
$var wire 1 4" Mux3~6_combout $end
$var wire 1 5" Mux3~7_combout $end
$var wire 1 6" Mux3~8_combout $end
$var wire 1 7" Add0~25_combout $end
$var wire 1 8" Add0~26_combout $end
$var wire 1 9" Add0~24 $end
$var wire 1 :" Add0~27_combout $end
$var wire 1 ;" Mux2~2_combout $end
$var wire 1 <" Mux2~3_combout $end
$var wire 1 =" Mux2~9_combout $end
$var wire 1 >" Mux2~4_combout $end
$var wire 1 ?" Mux2~5_combout $end
$var wire 1 @" Mux2~6_combout $end
$var wire 1 A" Mult0|auto_generated|mac_out2~DATAOUT15 $end
$var wire 1 B" Mux2~7_combout $end
$var wire 1 C" Mux2~8_combout $end
$var wire 1 D" Mult0|auto_generated|mac_out2~dataout $end
$var wire 1 E" s2[0]$latch~combout $end
$var wire 1 F" Mult0|auto_generated|mac_out2~DATAOUT1 $end
$var wire 1 G" s2[1]$latch~combout $end
$var wire 1 H" Mult0|auto_generated|mac_out2~DATAOUT2 $end
$var wire 1 I" s2[2]$latch~combout $end
$var wire 1 J" Mult0|auto_generated|mac_out2~DATAOUT3 $end
$var wire 1 K" s2[3]$latch~combout $end
$var wire 1 L" Mult0|auto_generated|mac_out2~DATAOUT4 $end
$var wire 1 M" s2[4]$latch~combout $end
$var wire 1 N" Mult0|auto_generated|mac_out2~DATAOUT5 $end
$var wire 1 O" s2[5]$latch~combout $end
$var wire 1 P" Mult0|auto_generated|mac_out2~DATAOUT6 $end
$var wire 1 Q" s2[6]$latch~combout $end
$var wire 1 R" Mult0|auto_generated|mac_out2~DATAOUT7 $end
$var wire 1 S" s2[7]$latch~combout $end
$var wire 1 T" saida_aux [15] $end
$var wire 1 U" saida_aux [14] $end
$var wire 1 V" saida_aux [13] $end
$var wire 1 W" saida_aux [12] $end
$var wire 1 X" saida_aux [11] $end
$var wire 1 Y" saida_aux [10] $end
$var wire 1 Z" saida_aux [9] $end
$var wire 1 [" saida_aux [8] $end
$var wire 1 \" saida_aux [7] $end
$var wire 1 ]" saida_aux [6] $end
$var wire 1 ^" saida_aux [5] $end
$var wire 1 _" saida_aux [4] $end
$var wire 1 `" saida_aux [3] $end
$var wire 1 a" saida_aux [2] $end
$var wire 1 b" saida_aux [1] $end
$var wire 1 c" saida_aux [0] $end
$var wire 1 d" Mult0|auto_generated|mac_out2_DATAOUT_bus [17] $end
$var wire 1 e" Mult0|auto_generated|mac_out2_DATAOUT_bus [16] $end
$var wire 1 f" Mult0|auto_generated|mac_out2_DATAOUT_bus [15] $end
$var wire 1 g" Mult0|auto_generated|mac_out2_DATAOUT_bus [14] $end
$var wire 1 h" Mult0|auto_generated|mac_out2_DATAOUT_bus [13] $end
$var wire 1 i" Mult0|auto_generated|mac_out2_DATAOUT_bus [12] $end
$var wire 1 j" Mult0|auto_generated|mac_out2_DATAOUT_bus [11] $end
$var wire 1 k" Mult0|auto_generated|mac_out2_DATAOUT_bus [10] $end
$var wire 1 l" Mult0|auto_generated|mac_out2_DATAOUT_bus [9] $end
$var wire 1 m" Mult0|auto_generated|mac_out2_DATAOUT_bus [8] $end
$var wire 1 n" Mult0|auto_generated|mac_out2_DATAOUT_bus [7] $end
$var wire 1 o" Mult0|auto_generated|mac_out2_DATAOUT_bus [6] $end
$var wire 1 p" Mult0|auto_generated|mac_out2_DATAOUT_bus [5] $end
$var wire 1 q" Mult0|auto_generated|mac_out2_DATAOUT_bus [4] $end
$var wire 1 r" Mult0|auto_generated|mac_out2_DATAOUT_bus [3] $end
$var wire 1 s" Mult0|auto_generated|mac_out2_DATAOUT_bus [2] $end
$var wire 1 t" Mult0|auto_generated|mac_out2_DATAOUT_bus [1] $end
$var wire 1 u" Mult0|auto_generated|mac_out2_DATAOUT_bus [0] $end
$var wire 1 v" Mult0|auto_generated|mac_mult1_DATAOUT_bus [17] $end
$var wire 1 w" Mult0|auto_generated|mac_mult1_DATAOUT_bus [16] $end
$var wire 1 x" Mult0|auto_generated|mac_mult1_DATAOUT_bus [15] $end
$var wire 1 y" Mult0|auto_generated|mac_mult1_DATAOUT_bus [14] $end
$var wire 1 z" Mult0|auto_generated|mac_mult1_DATAOUT_bus [13] $end
$var wire 1 {" Mult0|auto_generated|mac_mult1_DATAOUT_bus [12] $end
$var wire 1 |" Mult0|auto_generated|mac_mult1_DATAOUT_bus [11] $end
$var wire 1 }" Mult0|auto_generated|mac_mult1_DATAOUT_bus [10] $end
$var wire 1 ~" Mult0|auto_generated|mac_mult1_DATAOUT_bus [9] $end
$var wire 1 !# Mult0|auto_generated|mac_mult1_DATAOUT_bus [8] $end
$var wire 1 "# Mult0|auto_generated|mac_mult1_DATAOUT_bus [7] $end
$var wire 1 ## Mult0|auto_generated|mac_mult1_DATAOUT_bus [6] $end
$var wire 1 $# Mult0|auto_generated|mac_mult1_DATAOUT_bus [5] $end
$var wire 1 %# Mult0|auto_generated|mac_mult1_DATAOUT_bus [4] $end
$var wire 1 &# Mult0|auto_generated|mac_mult1_DATAOUT_bus [3] $end
$var wire 1 '# Mult0|auto_generated|mac_mult1_DATAOUT_bus [2] $end
$var wire 1 (# Mult0|auto_generated|mac_mult1_DATAOUT_bus [1] $end
$var wire 1 )# Mult0|auto_generated|mac_mult1_DATAOUT_bus [0] $end
$upscope $end
$upscope $end
$enddefinitions $end
#0
$dumpvars
b10100010 !
b11011011 "
b1101 #
0+
1*
0)
1(
0'
0&
0%
1$
03
12
11
00
1/
0.
0-
1,
x4
05
16
x7
18
19
1:
0;
0<
0=
1>
0?
1@
0A
0B
0C
1D
0E
1F
1G
0H
1I
0J
0K
1L
1M
1N
1O
0P
0Q
1R
0S
1T
0U
1V
0W
0X
1Y
1Z
0[
1\
1]
0^
1_
0`
1a
1b
1c
1d
0e
1f
0g
1h
0i
0j
0k
0l
1m
0n
0o
1p
0q
0r
0s
0t
1u
0v
0w
0x
0y
1z
1{
1|
0}
0~
0!!
1"!
0#!
1$!
0%!
1&!
1'!
0(!
1)!
0*!
0+!
1,!
0-!
1.!
0/!
10!
01!
02!
03!
14!
05!
06!
07!
18!
19!
1:!
0;!
0<!
0=!
0>!
0?!
0@!
1A!
1B!
0C!
0D!
0E!
1F!
1G!
1H!
1I!
0J!
1K!
0L!
0M!
0N!
1O!
1P!
0Q!
0R!
1S!
0T!
0U!
0V!
1W!
1X!
1Y!
1Z!
0[!
0\!
0]!
0^!
0_!
1`!
0a!
0b!
0c!
0d!
1e!
0f!
0g!
0h!
0i!
0j!
0k!
1l!
0m!
1n!
1o!
1p!
1q!
1r!
0s!
0t!
0u!
0v!
0w!
0x!
1y!
0z!
0{!
0|!
1}!
0~!
1!"
1""
1#"
0$"
0%"
0&"
1'"
0("
0)"
0*"
1+"
1,"
0-"
0."
0/"
00"
01"
02"
13"
04"
05"
06"
07"
18"
09"
0:"
0;"
0<"
0="
0>"
0?"
0@"
1A"
1B"
1C"
0D"
0E"
1F"
1G"
1H"
1I"
0J"
0K"
1L"
1M"
0N"
0O"
0P"
0Q"
1R"
1S"
0c"
1b"
1a"
0`"
1_"
0^"
0]"
1\"
0["
1Z"
0Y"
1X"
0W"
0V"
0U"
1T"
0u"
0t"
0s"
1r"
1q"
0p"
1o"
0n"
0m"
1l"
0k"
1j"
0i"
1h"
0g"
0f"
0e"
1d"
0)#
0(#
0'#
1&#
1%#
0$#
1##
0"#
0!#
1~"
0}"
1|"
0{"
1z"
0y"
0x"
0w"
1v"
$end
#5000
b100010 !
b1100010 !
b1000010 !
b1010010 !
b1010000 !
b11011001 "
b11011000 "
0\
0Z
0Y
1S
0R
1P
0N
0v"
1w"
0z"
1}"
0##
0%#
0&#
0&!
0'!
0)!
1-!
00!
13!
04!
0d"
1e"
0h"
1k"
0o"
0q"
0r"
0F"
0H"
0L"
17!
0n!
11"
0A"
04
1;!
0]
1Q!
0Z!
1J!
0y!
1s!
1>!
0!"
1j
0b
03"
1-"
1k
0c
1>"
0b"
0a"
0_"
1["
0X"
1U"
0T"
1^
1f!
1[!
1L!
1t!
0""
0k
1c
1."
1@!
0o!
15"
0B"
0G"
0I"
0M"
0I
0G
0F
0_
0r!
1g!
1\!
1M!
1u!
0#"
1/"
1C!
0/
01
02
0p!
16"
0C"
0D
1C
0@
0s!
1h!
1]!
0$
1%
0(
1D!
1=
0t!
1i!
1+
0u!
#10000
b11010000 "
b11101 #
b10101 #
b10100 #
b1110000 !
b1100000 !
b11010010 "
0S
1R
0m
0p
1o
1Z
0V
1z"
1{"
0}"
1!#
1+!
0-!
1/!
10!
1h"
1i"
0k"
1m"
1P"
07!
1_!
1n!
14
1y!
1~!
1s!
0>!
12"
1!"
0j
1b
1?"
0}!
0l!
0e!
0`!
0Y!
0P!
0B!
0$!
0|
0{
1T!
0S!
1q
0A!
09!
0;!
0^
1=!
1`
1]"
0["
1Y"
1X"
0:!
0,"
1t!
14"
1""
1k
0c
1@"
0g!
0[!
05"
0W!
0C!
0@!
0"!
1r
1_
0-"
1u!
15"
1#"
1B"
0h!
0\!
0`
06"
0X!
0D!
0=
0>
0C
0."
0i!
0]!
0+
0*
0%
16"
1C"
1D
1C
0/"
1$
1%
#15000
b1100100 !
b1100101 !
b11010110 "
b11100101 !
b10100101 !
b10100111 !
b11010111 "
b10110111 !
1\
1X
1[
1Y
1W
1S
0P
1N
1v"
0w"
1y"
0{"
0|"
1}"
0!#
1"#
1##
1'#
1%!
1)!
1*!
0+!
1-!
0.!
0/!
11!
03!
14!
1d"
0e"
1g"
0i"
0j"
1k"
0m"
1n"
1o"
1s"
1D"
1L"
1N"
0P"
17!
0O!
0_!
1w!
01"
1A"
04
1;!
1|
1{
1Y!
1R!
1"!
1a!
0Q!
1Z!
0J!
1^
1k!
1[!
1&"
0y!
0~!
0s!
0?"
13"
19"
1-"
0k
1c
0>"
1l
0d
0I!
0"!
0f!
1U!
1b!
0L!
0_
1m!
1\!
1("
1,"
0!"
0t!
0@"
1:"
1."
0l
1d
0r
1J!
1g!
1W!
1c!
0M!
1`
1o!
1]!
1)"
09"
0-"
0""
0u!
0B"
1;"
1/"
1r
1L!
1h!
0a
0:"
0."
0#"
1<"
1X!
1d!
1p!
1*"
0C"
0D
1B
1@
1?
1>
1M!
1i!
0;"
0/"
0$
1&
1(
1)
1*
0<"
#20000
b10111111 !
b1010111 "
b10111 "
b10110 #
b110 #
b1110 #
b1111 #
b10011111 !
b10011 "
b11011111 !
1m
1n
1p
0o
0X
0O
0M
1U
0R
1P
0v"
0z"
0}"
0"#
0##
1$#
1%#
1'!
1(!
0)!
0*!
0-!
00!
04!
0d"
0h"
0k"
0n"
0o"
1p"
1q"
1H"
1J"
0L"
0N"
07!
0n!
0A"
14
03"
02"
0&"
1}!
1y!
0k!
1e!
0a!
0R!
1Q!
1P!
0K!
1B!
1$!
0{
0r
0q
1S!
1A!
0=!
1g
1k
0c
1l
0d
1r!
0g!
0h
0,"
1!"
1>!
1j
1-"
1,"
0!"
1z!
1g!
05"
0)"
0o!
0c!
0W!
1""
0h!
0\!
0L!
1@"
1s!
1i
0-"
1-"
1#"
0i!
0]!
0M!
0j
06"
0*"
0p!
0d!
0X!
0>
0?
0@
0B
0C
0*
0)
0(
0&
0%
#25000
b110011 "
b11011011 !
b11011010 !
b110010 "
b11001010 !
b10110010 "
b10110110 "
b10001010 !
0[
0W
0S
0P
0\
1X
1Q
1M
1w"
1x"
0y"
1|"
0~"
1##
0'#
0%!
1)!
0,!
1.!
01!
12!
13!
1e"
1f"
0g"
1j"
0l"
1o"
0s"
0D"
1L"
0R"
1O!
0w!
1%"
11"
04
1I!
1"!
1{
1\!
0[!
0g
1_
0y!
1t!
0s!
0>!
0i
1a
13"
1."
0-"
1<!
0'"
1j
0b
1>"
0J!
1]!
1u!
1/"
0k
1c
0l
1d
#30000
b1011 #
b10111110 "
b10000010 !
b11111110 "
b1001 #
b11001 #
b10001 #
b10000 #
b10100010 !
b10100110 !
b10100111 !
b11111111 "
b1111111 "
1[
1W
0U
1R
1\
1V
1O
0M
0m
0n
0u
0p
1o
0x"
1y"
1~"
1!#
0%#
1'#
1%!
0'!
1+!
1,!
11!
02!
0f"
1g"
1l"
1m"
0q"
1s"
1D"
0H"
1P"
1R"
1w!
0%"
14
1R!
0B!
0I!
0"!
1k!
0\!
1[!
0_
1l!
1h!
0g!
1h
0`
12"
0""
1!"
0<!
08"
1l
0d
1y!
1a!
0Q!
0P!
1K!
0$!
1q
0A!
08!
0S!
1C!
0C!
1J!
0]!
1\!
1i!
0h!
0#"
1""
1:"
0z!
1B"
15"
1)"
1{!
1o!
1c!
1W!
0."
0t!
0@"
0("
1D!
1=
1L!
1]!
0i!
1#"
1;"
0{!
0/"
0u!
0B"
0)"
1+
0D!
0=
1M!
1<"
0+
#35000
b1101111 "
b100111 !
b110111 !
b110011 !
b11101111 "
0W
1S
0N
0T
1M
0w"
1x"
0y"
1z"
1{"
1}"
0!#
1%#
1'!
0+!
1-!
1/!
10!
01!
12!
03!
0e"
1f"
0g"
1h"
1i"
1k"
0m"
1q"
1H"
0P"
17!
1_!
1n!
0w!
1%"
01"
04
0k!
1`!
0[!
1_
1&"
1s!
1i
0a
0l
1d
0q!
18"
0m!
0\!
1("
1t!
0j
1b
1r
0s!
0:"
0o!
0]!
1)"
1u!
1E!
1v
0t!
0;"
0u!
0<"
1p!
1*"
1C"
16"
1|!
1d!
1X!
1D!
1=
1>
1?
1A
1C
1D
1B
1@
1+
1*
1)
1'
1%
1$
1&
1(
#40000
b11101101 "
b110001 !
b11001101 "
b11001001 "
b1110001 !
b11000001 "
b10001 #
b1010001 !
b1000001 "
1m
0Y
0R
1P
0Z
0X
0V
0Q
0M
0x"
1y"
0z"
0|"
0}"
0$#
0%#
0'!
0(!
0-!
0.!
00!
11!
02!
0f"
1g"
0h"
0j"
0k"
0p"
0q"
0H"
0J"
07!
0O!
0n!
1w!
0%"
14
03"
02"
0+"
1'"
0&"
1q!
0a!
0R!
1Q!
0|
0r
0J!
0!"
1-"
1<!
1k
0c
1=!
0_
04"
0-"
0("
1s!
0b!
0U!
1I!
1"!
0E!
0v
0L!
0""
1."
1l
0d
1`
05"
0."
0)"
1t!
0c!
0W!
0Z!
1J!
0M!
0#"
1/"
1r
0C"
06"
0*"
0|!
0p!
0d!
0X!
0D!
0=
0>
0?
0@
0A
0B
0C
0D
0/"
1u!
1f!
1[!
1L!
1E!
1v
0+
0*
0)
0(
0'
0&
0%
0$
0r!
1g!
1\!
1M!
1C"
16"
1*"
1|!
1p!
1d!
1X!
1D!
1=
1>
1?
1@
1A
1B
1C
1D
0s!
1h!
1]!
1+
1*
1)
1(
1'
1&
1%
1$
0t!
1i!
0u!
#45000
b1011001 !
b1 "
b1001001 !
b11 "
b111 "
b10000111 "
1Z
1X
0O
1M
1U
0S
1x"
0y"
1|"
0~"
1!#
1"#
1$#
1%#
1&#
1&!
1'!
1(!
1*!
1+!
0,!
1.!
01!
12!
1f"
0g"
1j"
0l"
1m"
1n"
1p"
1q"
1r"
1F"
1H"
1J"
1N"
1P"
0R"
1O!
0w!
1%"
04
0H!
0;!
0^
0Y!
0=!
1_
13"
1+"
0<!
08"
0l
1d
1r!
0g!
0h
1~!
1s!
1>!
0i
0J!
0[!
1-"
1:"
0r
0~!
0s!
0h!
1i
0,"
1!"
1t!
1j
0L!
0\!
1."
1;"
0E!
0v
1,"
0!"
0t!
0i!
0j
0-"
1""
1u!
0M!
0]!
1/"
1<"
1-"
0""
0u!
0."
1#"
0C"
06"
0*"
0|!
0p!
0d!
0X!
0D!
0=
0>
0?
0@
0A
0B
0C
0D
1."
0#"
0/"
0+
0*
0)
0(
0'
0&
0%
0$
1/"
#50000
b10011 #
b11001001 !
b11001011 !
b10100111 "
b10001011 !
b10101111 "
b10010 #
b10000011 !
b11101111 "
b11101101 "
0Z
1V
1Q
1O
1Y
0U
0P
1N
0m
1n
1w"
1y"
1z"
0{"
0|"
1}"
0"#
0##
0$#
0(!
0)!
0*!
1-!
0.!
0/!
10!
11!
13!
1e"
1g"
1h"
0i"
0j"
1k"
0n"
0o"
0p"
0J"
0L"
0N"
17!
0O!
0_!
1n!
1w!
11"
14
0Q!
0f
1^
0l!
1h
0`
0'"
0>!
1j
0b
03"
0k
1c
1J!
0r!
1g!
0-"
0>"
1l
0d
18"
0q!
0`!
1Y!
0K!
0G!
1|
1r
0F!
1s
0q
0i
1a
0l
1d
1~!
0."
0r
0:"
1[!
0;"
0I!
0"!
1E!
1v
1t
0,"
1!"
0/"
0E!
0v
1Z!
0J!
1C"
16"
1*"
1|!
1p!
1d!
1X!
1D!
1=
1>
1?
1@
1A
1B
1C
1D
1E!
1v
19"
1-"
0f!
0[!
1+
1*
1)
1(
1'
1&
1%
1$
0C"
06"
0*"
0|!
0p!
0d!
0X!
0D!
0=
0>
0?
0@
0A
0B
0C
0D
1:"
1r!
0g!
0+
0*
0)
0(
0'
0&
0%
0$
1C"
16"
1*"
1|!
1p!
1d!
1X!
1D!
1=
1>
1?
1@
1A
1B
1C
1D
1s!
1+
1*
1)
1(
1'
1&
1%
1$
#55000
b10000111 !
b10100111 !
b11101001 "
b100111 !
b1100111 !
b11100001 "
b1101111 !
b11100011 "
1Z
0X
0V
1W
1U
1R
1P
0N
0y"
0z"
1|"
0}"
1"#
1$#
0&#
0&!
1(!
1*!
0-!
1.!
00!
01!
0g"
0h"
1j"
0k"
1n"
1p"
0r"
0F"
1J"
1N"
07!
1O!
0n!
0w!
04
1M!
1H!
1;!
1f
0Y!
1g
0_
0e!
0h
1`
1[!
1g!
1#"
1,"
0!"
1>!
1/"
09"
0-"
0<"
1J!
0[!
0g!
1i
0a
1-"
0:"
0j
1b
1k
0c
#60000
b1100011 "
b1101101 !
b1000011 "
b10011 #
b1101001 !
b1001001 !
b1000001 "
1m
0Y
0W
0R
0Z
0Q
0M
0w"
0x"
1y"
1~"
0!#
0"#
0%#
0'!
0*!
0+!
1,!
11!
02!
03!
0e"
0f"
1g"
1l"
0m"
0n"
0q"
0H"
0N"
0P"
1R"
1w!
0%"
01"
14
1>"
13"
0+"
1'"
1q!
1e!
1`!
1Y!
1Q!
1K!
1B!
0|
0t
0M!
0J!
1f!
1[!
0g
0#"
0,"
1!"
1<!
1l
0d
19"
0~!
0s!
0f!
0[!
1;"
1."
1""
1t!
1h!
1\!
1L!
1I!
1"!
0E!
0v
1t
1:"
1,"
0!"
1g!
1i!
0Z!
1J!
1E!
1v
0C"
06"
0*"
0|!
0p!
0d!
0X!
0D!
0=
0>
0?
0@
0A
0B
0C
0D
09"
0-"
1f!
1[!
0+
0*
0)
0(
0'
0&
0%
0$
1C"
16"
1*"
1|!
1p!
1d!
1X!
1D!
1=
1>
1?
1@
1A
1B
1C
1D
0:"
0g!
1+
1*
1)
1(
1'
1&
1%
1$
#65000
b1001000 !
b1000101 "
b1000 !
b1100 !
1X
0[
1W
0P
0y"
1}"
0~"
1"#
1##
1%#
0'#
0%!
1'!
1)!
1*!
0,!
1-!
01!
0g"
1k"
0l"
1n"
1o"
1q"
0s"
0D"
1H"
1L"
1N"
0R"
17!
0w!
04
1]!
0Y!
0B!
0;!
0"!
1]
0f!
0[!
03"
19"
1-"
0<!
0k
1c
1f!
1[!
0^
1g!
1:"
0l
1d
0g!
1_
0t
0E!
0v
0C"
06"
0*"
0|!
0p!
0d!
0X!
0D!
0=
0>
0?
0@
0A
0B
0C
0D
0+
0*
0)
0(
0'
0&
0%
0$
#70000
b1010011 #
b1110011 #
b1110111 #
b1100111 #
b1101111 #
b1010101 "
b11100 !
b1101101 #
b10100 !
b10110 !
b1010111 "
b10010 !
1Y
0W
0U
1S
1Z
1T
0n
1u
1p
0o
1w
1y
1{"
0}"
0"#
1&#
1&!
0*!
0-!
1/!
1i"
0k"
0n"
1r"
1F"
0N"
07!
1_!
14
0Q!
1M!
1Z!
0J!
0[!
1l!
0i!
0r!
1g!
1h
0`
0y!
1u!
1s!
13"
0T!
1P!
1G!
1F!
1B!
0s
1A!
1+"
1Y!
1S!
1$!
1|
0z
0f!
0L!
0\!
0s!
0i
1a
15"
1o!
1c!
1W!
0""
1<"
1#"
1i!
09"
0-"
1"!
1r!
0g!
0M!
0]!
0t!
1j
0b
0#"
0:"
0."
1s!
0h!
0u!
0;"
0/"
1t!
0i!
0<"
1u!
