simulation/qsim/ula.msim.vcd
$comment
	File created using the following command:
		vcd file ula.msim.vcd -direction
$end
$date
	Mon Aug 06 04:01:37 2018
$end
$version
	ModelSim Version 10.3d
$end
$timescale
	1ps
$end

$scope module ula_vlg_vec_tst $end
$var reg 8 ! e1 [7:0] $end
$var reg 8 " e2 [7:0] $end
$var reg 8 # op [7:0] $end
$var wire 1 $ s1 [7] $end
$var wire 1 % s1 [6] $end
$var wire 1 & s1 [5] $end
$var wire 1 ' s1 [4] $end
$var wire 1 ( s1 [3] $end
$var wire 1 ) s1 [2] $end
$var wire 1 * s1 [1] $end
$var wire 1 + s1 [0] $end
$var wire 1 , s2 [7] $end
$var wire 1 - s2 [6] $end
$var wire 1 . s2 [5] $end
$var wire 1 / s2 [4] $end
$var wire 1 0 s2 [3] $end
$var wire 1 1 s2 [2] $end
$var wire 1 2 s2 [1] $end
$var wire 1 3 s2 [0] $end
$var wire 1 4 sampler $end

$scope module i1 $end
$var wire 1 5 gnd $end
$var wire 1 6 vcc $end
$var wire 1 7 unknown $end
$var tri1 1 8 devclrn $end
$var tri1 1 9 devpor $end
$var tri1 1 : devoe $end
$var wire 1 ; Mult0|auto_generated|mac_out2~0 $end
$var wire 1 < Mult0|auto_generated|mac_out2~1 $end
$var wire 1 = s1[0]~output_o $end
$var wire 1 > s1[1]~output_o $end
$var wire 1 ? s1[2]~output_o $end
$var wire 1 @ s1[3]~output_o $end
$var wire 1 A s1[4]~output_o $end
$var wire 1 B s1[5]~output_o $end
$var wire 1 C s1[6]~output_o $end
$var wire 1 D s1[7]~output_o $end
$var wire 1 E s2[0]~output_o $end
$var wire 1 F s2[1]~output_o $end
$var wire 1 G s2[2]~output_o $end
$var wire 1 H s2[3]~output_o $end
$var wire 1 I s2[4]~output_o $end
$var wire 1 J s2[5]~output_o $end
$var wire 1 K s2[6]~output_o $end
$var wire 1 L s2[7]~output_o $end
$var wire 1 M e1[0]~input_o $end
$var wire 1 N e2[6]~input_o $end
$var wire 1 O e1[6]~input_o $end
$var wire 1 P e2[7]~input_o $end
$var wire 1 Q e1[7]~input_o $end
$var wire 1 R Equal0~3_combout $end
$var wire 1 S e2[2]~input_o $end
$var wire 1 T e2[3]~input_o $end
$var wire 1 U e1[3]~input_o $end
$var wire 1 V e1[2]~input_o $end
$var wire 1 W Equal0~1_combout $end
$var wire 1 X e1[4]~input_o $end
$var wire 1 Y e1[5]~input_o $end
$var wire 1 Z e2[5]~input_o $end
$var wire 1 [ e2[4]~input_o $end
$var wire 1 \ Equal0~2_combout $end
$var wire 1 ] e2[0]~input_o $end
$var wire 1 ^ e2[1]~input_o $end
$var wire 1 _ e1[1]~input_o $end
$var wire 1 ` Equal0~0_combout $end
$var wire 1 a Equal0~4_combout $end
$var wire 1 b op[1]~input_o $end
$var wire 1 c op[3]~input_o $end
$var wire 1 d Mult0|auto_generated|mac_mult1~dataout $end
$var wire 1 e Mult0|auto_generated|mac_mult1~DATAOUT1 $end
$var wire 1 f Mult0|auto_generated|mac_mult1~DATAOUT2 $end
$var wire 1 g Mult0|auto_generated|mac_mult1~DATAOUT3 $end
$var wire 1 h Mult0|auto_generated|mac_mult1~DATAOUT4 $end
$var wire 1 i Mult0|auto_generated|mac_mult1~DATAOUT5 $end
$var wire 1 j Mult0|auto_generated|mac_mult1~DATAOUT6 $end
$var wire 1 k Mult0|auto_generated|mac_mult1~DATAOUT7 $end
$var wire 1 l Mult0|auto_generated|mac_mult1~DATAOUT8 $end
$var wire 1 m Mult0|auto_generated|mac_mult1~DATAOUT9 $end
$var wire 1 n Mult0|auto_generated|mac_mult1~DATAOUT10 $end
$var wire 1 o Mult0|auto_generated|mac_mult1~DATAOUT11 $end
$var wire 1 p Mult0|auto_generated|mac_mult1~DATAOUT12 $end
$var wire 1 q Mult0|auto_generated|mac_mult1~DATAOUT13 $end
$var wire 1 r Mult0|auto_generated|mac_mult1~DATAOUT14 $end
$var wire 1 s Mult0|auto_generated|mac_mult1~DATAOUT15 $end
$var wire 1 t Mult0|auto_generated|mac_mult1~0 $end
$var wire 1 u Mult0|auto_generated|mac_mult1~1 $end
$var wire 1 v Mult0|auto_generated|mac_out2~DATAOUT8 $end
$var wire 1 w op[0]~input_o $end
$var wire 1 x op[2]~input_o $end
$var wire 1 y Mux25~6_combout $end
$var wire 1 z Add1~1 $end
$var wire 1 { Add1~3 $end
$var wire 1 | Add1~5 $end
$var wire 1 } Add1~7 $end
$var wire 1 ~ Add1~9 $end
$var wire 1 !! Add1~11 $end
$var wire 1 "! Add1~13 $end
$var wire 1 #! Add1~15 $end
$var wire 1 $! Add1~16_combout $end
$var wire 1 %! Mux25~4_combout $end
$var wire 1 &! Add0~1 $end
$var wire 1 '! Add0~3 $end
$var wire 1 (! Add0~5 $end
$var wire 1 )! Add0~7 $end
$var wire 1 *! Add0~9 $end
$var wire 1 +! Add0~11 $end
$var wire 1 ,! Add0~13 $end
$var wire 1 -! Add0~15 $end
$var wire 1 .! Add0~16_combout $end
$var wire 1 /! Mux25~5_combout $end
$var wire 1 0! op[4]~input_o $end
$var wire 1 1! op[7]~input_o $end
$var wire 1 2! op[5]~input_o $end
$var wire 1 3! op[6]~input_o $end
$var wire 1 4! Mux16~0_combout $end
$var wire 1 5! Mux25~8_combout $end
$var wire 1 6! Mux25~7_combout $end
$var wire 1 7! Mux16~1_combout $end
$var wire 1 8! Mux16~2_combout $end
$var wire 1 9! Mux16~2clkctrl_outclk $end
$var wire 1 :! Mux13~0_combout $end
$var wire 1 ;! Mux13~1_combout $end
$var wire 1 <! Mux13~2_combout $end
$var wire 1 =! Add0~0_combout $end
$var wire 1 >! Mux13~3_combout $end
$var wire 1 ?! Add2~0_combout $end
$var wire 1 @! Add2~1_combout $end
$var wire 1 A! Mux12~1_combout $end
$var wire 1 B! Mux12~0_combout $end
$var wire 1 C! Mux12~2_combout $end
$var wire 1 D! Mux13~4_combout $end
$var wire 1 E! LessThan1~1_cout $end
$var wire 1 F! LessThan1~3_cout $end
$var wire 1 G! LessThan1~5_cout $end
$var wire 1 H! LessThan1~7_cout $end
$var wire 1 I! LessThan1~9_cout $end
$var wire 1 J! LessThan1~11_cout $end
$var wire 1 K! LessThan1~13_cout $end
$var wire 1 L! LessThan1~14_combout $end
$var wire 1 M! LessThan0~1_cout $end
$var wire 1 N! LessThan0~3_cout $end
$var wire 1 O! LessThan0~5_cout $end
$var wire 1 P! LessThan0~7_cout $end
$var wire 1 Q! LessThan0~9_cout $end
$var wire 1 R! LessThan0~11_cout $end
$var wire 1 S! LessThan0~13_cout $end
$var wire 1 T! LessThan0~14_combout $end
$var wire 1 U! Mux12~3_combout $end
$var wire 1 V! Mux12~4_combout $end
$var wire 1 W! Mux13~5_combout $end
$var wire 1 X! Add2~3_combout $end
$var wire 1 Y! Mux10~0_combout $end
$var wire 1 Z! Mux12~13_combout $end
$var wire 1 [! Mux12~6_combout $end
$var wire 1 \! Mult0|auto_generated|mac_out2~DATAOUT9 $end
$var wire 1 ]! Mux26~0_combout $end
$var wire 1 ^! Mux12~5_combout $end
$var wire 1 _! Mux10~1_combout $end
$var wire 1 `! Mux12~8_combout $end
$var wire 1 a! Mux10~4_combout $end
$var wire 1 b! Add2~4_combout $end
$var wire 1 c! Add2~2 $end
$var wire 1 d! Add2~5_combout $end
$var wire 1 e! Mux10~2_combout $end
$var wire 1 f! Mux10~3_combout $end
$var wire 1 g! Mux12~9_combout $end
$var wire 1 h! Mux12~10_combout $end
$var wire 1 i! Mux10~5_combout $end
$var wire 1 j! Mux12~11_combout $end
$var wire 1 k! Mux12~7_combout $end
$var wire 1 l! Mux12~12_combout $end
$var wire 1 m! Mux12~14_combout $end
$var wire 1 n! Mux11~1_combout $end
$var wire 1 o! Mux11~2_combout $end
$var wire 1 p! Mux11~3_combout $end
$var wire 1 q! Add2~6 $end
$var wire 1 r! Add2~7_combout $end
$var wire 1 s! Mux11~4_combout $end
$var wire 1 t! Mux11~5_combout $end
$var wire 1 u! Mux11~6_combout $end
$var wire 1 v! Mult0|auto_generated|mac_out2~DATAOUT10 $end
$var wire 1 w! Mux27~0_combout $end
$var wire 1 x! Mux11~0_combout $end
$var wire 1 y! Mux11~7_combout $end
$var wire 1 z! Mult0|auto_generated|mac_out2~DATAOUT11 $end
$var wire 1 {! Mux28~0_combout $end
$var wire 1 |! Mux10~6_combout $end
$var wire 1 }! Add2~8 $end
$var wire 1 ~! Add2~9_combout $end
$var wire 1 !" Mux10~9_combout $end
$var wire 1 "" Mux10~10_combout $end
$var wire 1 #" Mux10~8_combout $end
$var wire 1 $" Mux10~11_combout $end
$var wire 1 %" Mux10~7_combout $end
$var wire 1 &" Mux10~12_combout $end
$var wire 1 '" Mux10~13_combout $end
$var wire 1 (" Mult0|auto_generated|mac_out2~DATAOUT12 $end
$var wire 1 )" Mux29~0_combout $end
$var wire 1 *" Mux9~0_combout $end
$var wire 1 +" Mux9~3_combout $end
$var wire 1 ," Add2~10 $end
$var wire 1 -" Add2~11_combout $end
$var wire 1 ." Mux9~4_combout $end
$var wire 1 /" Mux9~2_combout $end
$var wire 1 0" Mux9~5_combout $end
$var wire 1 1" Mux9~1_combout $end
$var wire 1 2" Mux9~6_combout $end
$var wire 1 3" Mux9~7_combout $end
$var wire 1 4" Mult0|auto_generated|mac_out2~DATAOUT13 $end
$var wire 1 5" Mux30~0_combout $end
$var wire 1 6" Mux8~0_combout $end
$var wire 1 7" Mux8~3_combout $end
$var wire 1 8" Add2~12 $end
$var wire 1 9" Add2~13_combout $end
$var wire 1 :" Mux8~4_combout $end
$var wire 1 ;" Mux8~2_combout $end
$var wire 1 <" Mux8~5_combout $end
$var wire 1 =" Mux8~1_combout $end
$var wire 1 >" Mux8~6_combout $end
$var wire 1 ?" Mux8~7_combout $end
$var wire 1 @" Mult0|auto_generated|mac_out2~DATAOUT14 $end
$var wire 1 A" Mux31~0_combout $end
$var wire 1 B" Mux7~0_combout $end
$var wire 1 C" Mux7~2_combout $end
$var wire 1 D" Mux7~3_combout $end
$var wire 1 E" Add2~14 $end
$var wire 1 F" Add2~15_combout $end
$var wire 1 G" Mux7~4_combout $end
$var wire 1 H" Mux7~5_combout $end
$var wire 1 I" Mux7~1_combout $end
$var wire 1 J" Mux7~6_combout $end
$var wire 1 K" Mux7~7_combout $end
$var wire 1 L" Mux6~1_combout $end
$var wire 1 M" Mux6~2_combout $end
$var wire 1 N" Mux6~3_combout $end
$var wire 1 O" Add2~17_combout $end
$var wire 1 P" Add2~16 $end
$var wire 1 Q" Add2~18_combout $end
$var wire 1 R" Mux6~4_combout $end
$var wire 1 S" Mux6~5_combout $end
$var wire 1 T" Mux6~6_combout $end
$var wire 1 U" Mult0|auto_generated|mac_out2~DATAOUT15 $end
$var wire 1 V" Mux32~0_combout $end
$var wire 1 W" Mux6~0_combout $end
$var wire 1 X" Mux6~7_combout $end
$var wire 1 Y" Add1~0_combout $end
$var wire 1 Z" Mux17~0_combout $end
$var wire 1 [" Mult0|auto_generated|mac_out2~dataout $end
$var wire 1 \" Mux17~1_combout $end
$var wire 1 ]" s2[0]$latch~combout $end
$var wire 1 ^" Mult0|auto_generated|mac_out2~DATAOUT1 $end
$var wire 1 _" Add1~2_combout $end
$var wire 1 `" Add0~2_combout $end
$var wire 1 a" Mux18~0_combout $end
$var wire 1 b" Mux18~1_combout $end
$var wire 1 c" s2[1]$latch~combout $end
$var wire 1 d" Mult0|auto_generated|mac_out2~DATAOUT2 $end
$var wire 1 e" Add0~4_combout $end
$var wire 1 f" Add1~4_combout $end
$var wire 1 g" Mux19~0_combout $end
$var wire 1 h" Mux19~1_combout $end
$var wire 1 i" s2[2]$latch~combout $end
$var wire 1 j" Add1~6_combout $end
$var wire 1 k" Add0~6_combout $end
$var wire 1 l" Mux20~0_combout $end
$var wire 1 m" Mult0|auto_generated|mac_out2~DATAOUT3 $end
$var wire 1 n" Mux20~1_combout $end
$var wire 1 o" s2[3]$latch~combout $end
$var wire 1 p" Add1~8_combout $end
$var wire 1 q" Add0~8_combout $end
$var wire 1 r" Mux21~0_combout $end
$var wire 1 s" Mult0|auto_generated|mac_out2~DATAOUT4 $end
$var wire 1 t" Mux21~1_combout $end
$var wire 1 u" s2[4]$latch~combout $end
$var wire 1 v" Add0~10_combout $end
$var wire 1 w" Add1~10_combout $end
$var wire 1 x" Mux22~0_combout $end
$var wire 1 y" Mult0|auto_generated|mac_out2~DATAOUT5 $end
$var wire 1 z" Mux22~1_combout $end
$var wire 1 {" s2[5]$latch~combout $end
$var wire 1 |" Mult0|auto_generated|mac_out2~DATAOUT6 $end
$var wire 1 }" Add1~12_combout $end
$var wire 1 ~" Add0~12_combout $end
$var wire 1 !# Mux23~0_combout $end
$var wire 1 "# Mux23~1_combout $end
$var wire 1 ## s2[6]$latch~combout $end
$var wire 1 $# Mult0|auto_generated|mac_out2~DATAOUT7 $end
$var wire 1 %# Add1~14_combout $end
$var wire 1 &# Add0~14_combout $end
$var wire 1 '# Mux24~0_combout $end
$var wire 1 (# Mux24~1_combout $end
$var wire 1 )# s2[7]$latch~combout $end
$var wire 1 *# saida_aux [15] $end
$var wire 1 +# saida_aux [14] $end
$var wire 1 ,# saida_aux [13] $end
$var wire 1 -# saida_aux [12] $end
$var wire 1 .# saida_aux [11] $end
$var wire 1 /# saida_aux [10] $end
$var wire 1 0# saida_aux [9] $end
$var wire 1 1# saida_aux [8] $end
$var wire 1 2# saida_aux [7] $end
$var wire 1 3# saida_aux [6] $end
$var wire 1 4# saida_aux [5] $end
$var wire 1 5# saida_aux [4] $end
$var wire 1 6# saida_aux [3] $end
$var wire 1 7# saida_aux [2] $end
$var wire 1 8# saida_aux [1] $end
$var wire 1 9# saida_aux [0] $end
$var wire 1 :# Mult0|auto_generated|mac_out2_DATAOUT_bus [17] $end
$var wire 1 ;# Mult0|auto_generated|mac_out2_DATAOUT_bus [16] $end
$var wire 1 <# Mult0|auto_generated|mac_out2_DATAOUT_bus [15] $end
$var wire 1 =# Mult0|auto_generated|mac_out2_DATAOUT_bus [14] $end
$var wire 1 ># Mult0|auto_generated|mac_out2_DATAOUT_bus [13] $end
$var wire 1 ?# Mult0|auto_generated|mac_out2_DATAOUT_bus [12] $end
$var wire 1 @# Mult0|auto_generated|mac_out2_DATAOUT_bus [11] $end
$var wire 1 A# Mult0|auto_generated|mac_out2_DATAOUT_bus [10] $end
$var wire 1 B# Mult0|auto_generated|mac_out2_DATAOUT_bus [9] $end
$var wire 1 C# Mult0|auto_generated|mac_out2_DATAOUT_bus [8] $end
$var wire 1 D# Mult0|auto_generated|mac_out2_DATAOUT_bus [7] $end
$var wire 1 E# Mult0|auto_generated|mac_out2_DATAOUT_bus [6] $end
$var wire 1 F# Mult0|auto_generated|mac_out2_DATAOUT_bus [5] $end
$var wire 1 G# Mult0|auto_generated|mac_out2_DATAOUT_bus [4] $end
$var wire 1 H# Mult0|auto_generated|mac_out2_DATAOUT_bus [3] $end
$var wire 1 I# Mult0|auto_generated|mac_out2_DATAOUT_bus [2] $end
$var wire 1 J# Mult0|auto_generated|mac_out2_DATAOUT_bus [1] $end
$var wire 1 K# Mult0|auto_generated|mac_out2_DATAOUT_bus [0] $end
$var wire 1 L# Mult0|auto_generated|mac_mult1_DATAOUT_bus [17] $end
$var wire 1 M# Mult0|auto_generated|mac_mult1_DATAOUT_bus [16] $end
$var wire 1 N# Mult0|auto_generated|mac_mult1_DATAOUT_bus [15] $end
$var wire 1 O# Mult0|auto_generated|mac_mult1_DATAOUT_bus [14] $end
$var wire 1 P# Mult0|auto_generated|mac_mult1_DATAOUT_bus [13] $end
$var wire 1 Q# Mult0|auto_generated|mac_mult1_DATAOUT_bus [12] $end
$var wire 1 R# Mult0|auto_generated|mac_mult1_DATAOUT_bus [11] $end
$var wire 1 S# Mult0|auto_generated|mac_mult1_DATAOUT_bus [10] $end
$var wire 1 T# Mult0|auto_generated|mac_mult1_DATAOUT_bus [9] $end
$var wire 1 U# Mult0|auto_generated|mac_mult1_DATAOUT_bus [8] $end
$var wire 1 V# Mult0|auto_generated|mac_mult1_DATAOUT_bus [7] $end
$var wire 1 W# Mult0|auto_generated|mac_mult1_DATAOUT_bus [6] $end
$var wire 1 X# Mult0|auto_generated|mac_mult1_DATAOUT_bus [5] $end
$var wire 1 Y# Mult0|auto_generated|mac_mult1_DATAOUT_bus [4] $end
$var wire 1 Z# Mult0|auto_generated|mac_mult1_DATAOUT_bus [3] $end
$var wire 1 [# Mult0|auto_generated|mac_mult1_DATAOUT_bus [2] $end
$var wire 1 \# Mult0|auto_generated|mac_mult1_DATAOUT_bus [1] $end
$var wire 1 ]# Mult0|auto_generated|mac_mult1_DATAOUT_bus [0] $end
$upscope $end
$upscope $end
$enddefinitions $end
#0
$dumpvars
b10001100 !
b100100 "
b1 #
0+
0*
0)
0(
0'
0&
0%
0$
03
02
01
10
0/
1.
1-
0,
x4
05
16
x7
18
19
1:
0;
0<
0=
0>
0?
0@
0A
0B
0C
0D
0E
0F
0G
1H
0I
1J
1K
0L
0M
0N
0O
0P
1Q
0R
1S
0T
1U
1V
0W
0X
0Y
1Z
0[
0\
0]
0^
0_
1`
0a
0b
0c
0d
0e
0f
0g
1h
1i
0j
1k
1l
1m
0n
0o
1p
0q
0r
0s
0t
0u
1v
1w
0x
0y
1z
0{
1|
0}
1~
1!!
0"!
0#!
0$!
1%!
0&!
1'!
1(!
0)!
0*!
1+!
0,!
1-!
0.!
0/!
00!
01!
02!
03!
14!
15!
06!
07!
18!
19!
0:!
1;!
0<!
0=!
1>!
0?!
0@!
0A!
0B!
0C!
0D!
0E!
1F!
0G!
0H!
1I!
1J!
0K!
1L!
0M!
1N!
0O!
1P!
0Q!
0R!
1S!
0T!
1U!
0V!
0W!
1X!
0Y!
0Z!
0[!
1\!
0]!
0^!
0_!
0`!
1a!
0b!
0c!
0d!
0e!
1f!
0g!
0h!
0i!
0j!
1k!
0l!
0m!
0n!
0o!
1p!
1q!
1r!
1s!
1t!
1u!
0v!
0w!
0x!
0y!
0z!
0{!
0|!
0}!
1~!
1!"
1""
0#"
1$"
1%"
1&"
0'"
1("
0)"
0*"
0+"
1,"
0-"
0."
0/"
00"
11"
02"
03"
04"
05"
06"
17"
08"
09"
1:"
0;"
1<"
1="
1>"
0?"
0@"
0A"
0B"
0C"
0D"
1E"
0F"
0G"
0H"
1I"
0J"
0K"
1L"
0M"
1N"
0O"
0P"
0Q"
1R"
1S"
1T"
0U"
0V"
0W"
0X"
0Y"
0Z"
0["
0\"
0]"
0^"
0_"
0`"
0a"
0b"
0c"
0d"
0e"
0f"
0g"
0h"
0i"
1j"
0k"
1l"
0m"
1n"
1o"
0p"
1q"
0r"
1s"
0t"
0u"
1v"
1w"
1x"
1y"
1z"
1{"
0|"
1}"
0~"
1!#
1"#
1##
1$#
0%#
1&#
0'#
0(#
0)#
09#
08#
07#
16#
05#
14#
13#
02#
01#
00#
0/#
0.#
0-#
0,#
0+#
0*#
0K#
0J#
0I#
0H#
0G#
0F#
1E#
1D#
0C#
1B#
1A#
1@#
0?#
0>#
1=#
0<#
0;#
0:#
0]#
0\#
0[#
0Z#
0Y#
0X#
1W#
1V#
0U#
1T#
1S#
1R#
0Q#
0P#
1O#
0N#
0M#
0L#
$end
#5000
b1100 !
b1001100 !
b1001101 !
b10100100 "
b10000100 "
b10000000 "
0S
0Z
1P
1M
1O
0Q
1N#
0O#
1Q#
0S#
0V#
0W#
0h
0i
0l
1n
0p
1q
1<#
0=#
1?#
0A#
0D#
0E#
0s"
0y"
0v
1v!
0("
14"
04
1n!
1G!
0(!
1e"
1f"
07"
1R!
0J!
0v"
0!!
0w"
1\
1T!
0L!
1#!
1E!
1B!
1@!
1=!
1Y"
0`
1F"
1D"
0S!
1K!
1~"
1"!
0}"
1)!
1k"
1g"
0:"
0x"
1}"
0U!
1$!
0F!
1Z"
1G"
0!#
1%#
0q"
1h"
0<"
0z"
1!#
1V"
1A"
15"
1)"
1{!
1w!
1]!
1/!
1\"
1H"
0"#
1'#
17#
0>"
04#
1"#
1*#
1+#
1,#
1-#
1.#
1/#
10#
16!
19#
1J"
03#
1(#
13#
1W"
1B"
16"
1*"
1|!
1x!
1^!
11#
12#
1i"
0{"
1]"
0##
0K
1E
0J
1G
1A!
0-
13
0.
11
1##
1X"
1K"
1?"
13"
1'"
1y!
1m!
1)#
1L
1>
1?
1@
1A
1B
1C
1D
1K
1C!
1,
1*
1)
1(
1'
1&
1%
1$
1-
1D!
1W!
1=
1+
#10000
b1101101 !
b11000000 "
b11010000 "
b11010010 "
b11101101 !
b10101101 !
1^
1[
1N
1Y
0O
1Q
1L#
0N#
1P#
0R#
1S#
1U#
1V#
1X#
1Z#
1e
1g
1i
1j
1l
0m
1o
0q
1s
1:#
0<#
1>#
0@#
1A#
1C#
1D#
1F#
1H#
1^"
1m"
1y"
1|"
1v
0\!
1z!
04"
1U"
14
1g!
0N!
1F!
1`"
1{
1_"
1+"
1Q!
0I!
1q"
0~
1p"
0\
1S!
0K!
0"!
19"
17"
1v"
1w"
0F"
0L"
0T!
1L!
0-!
0&#
0#!
0%#
1h!
1a"
0f"
1."
1r"
0w"
1T!
0L!
1#!
1%#
1:"
1x"
1U!
1.!
0'#
0$!
1j!
1b"
0g"
10"
1t"
0x"
0U!
1$!
1'#
1<"
1z"
0/!
0(#
0V"
0A"
05"
0)"
0{!
0w!
0]!
1l!
18#
0h"
12"
15#
0z"
1V"
1A"
15"
1)"
1{!
1w!
1]!
1/!
1(#
1>"
14#
06!
02#
0*#
0+#
0,#
0-#
0.#
0/#
00#
07#
04#
1*#
1+#
1,#
1-#
1.#
1/#
10#
16!
12#
01#
0W"
0B"
06"
0*"
0|!
0x!
0^!
1c"
1u"
1{"
0)#
0L
1J
1I
1F
1W"
1B"
16"
1*"
1|!
1x!
1^!
11#
0A!
0,
1.
1/
12
0i"
0{"
1)#
0X"
0K"
0?"
03"
0'"
0y!
0m!
0>
0?
0@
0A
0B
0C
0D
1L
0J
0G
1A!
0C!
0*
0)
0(
0'
0&
0%
0$
1,
0.
01
1X"
1K"
1?"
13"
1'"
1y!
1m!
1>
1?
1@
1A
1B
1C
1D
1C!
0D!
1*
1)
1(
1'
1&
1%
1$
1D!
0W!
0=
0+
1W!
1=
1+
#15000
b10111101 !
b10111001 !
b10111000 !
b11110010 "
b11110110 "
b11100110 "
b111000 !
1S
0[
1Z
0M
0V
1X
0Q
0L#
1N#
1O#
0P#
0Q#
1R#
0S#
0T#
0V#
1W#
0X#
0Z#
0e
0g
1h
0i
0k
0l
1m
0n
0o
1p
1q
0s
0:#
1<#
1=#
0>#
0?#
1@#
0A#
0B#
0D#
1E#
0F#
0H#
0^"
0m"
1s"
0y"
0$#
0v
1\!
0v!
0z!
1("
14"
0U"
04
1O!
0G!
0|
0Q!
1I!
1~
0="
0R!
1J!
0+!
0v"
1!!
1w"
0E!
0B!
0@!
0=!
0Y"
0r!
1-"
1L"
1-!
1&#
0%#
0j"
1R!
0J!
0!!
0w"
1,!
0~"
1x"
0}"
0Z"
0.!
0'#
0l"
1}"
0x"
0-!
0&#
0!#
1z"
0\"
0(#
0n"
1!#
0z"
1.!
0"#
14#
09#
02#
06#
1"#
04#
03#
1{"
0]"
0)#
0L
0E
1J
13#
0,
03
1.
0o"
0{"
0##
0K
0J
0H
0-
0.
00
1##
1K
1-
#20000
b110000 !
b10100110 "
b10100100 "
b110100 !
0^
0N
1V
0U
0O#
0R#
1S#
1l
0m
0p
0=#
0@#
1A#
1v
0\!
0("
14
0g!
1N!
0`"
0{
0_"
1`
0D"
0S!
1K!
0,!
1~"
1"!
0}"
1r!
0n!
1(!
0e"
1f"
1W
0!"
0~!
0P!
1H!
0k"
1}
1j"
0h!
0O!
0a"
1|
0f"
0G"
1-!
1&#
0!#
1%#
1k"
1g"
0""
1l"
0p"
0j!
1P!
0b"
0}
0j"
0g"
0H"
0.!
1'#
0"#
1h"
0$"
1n"
0r"
0l!
08#
1p"
0l"
0h"
0J"
1(#
03#
17#
0&"
16#
0t"
1r"
0n"
07#
12#
05#
0c"
0##
1i"
1o"
1H
1G
0K
0F
1t"
06#
10
11
0-
02
0i"
1)#
0u"
0I
1L
0G
15#
0/
1,
01
0o"
0H
00
1u"
1I
1/
#25000
b110110 !
b10100101 "
b10110 !
b1010110 !
b1000110 !
b10100001 "
b11000110 !
b11100001 "
b11000010 !
1]
0S
1N
1_
0V
0X
0Y
1O
1Q
1L#
1P#
1R#
0S#
1T#
0U#
0W#
1Z#
1e
0h
0j
1k
0l
1m
1o
1s
1:#
1>#
1@#
0A#
1B#
0C#
0E#
1H#
1^"
0s"
0|"
1$#
0v
1\!
1z!
1U"
04
1M!
1B!
1=!
0z
1Y"
0`
0p!
1n!
0(!
0I"
1D"
1,!
1R
1g!
1d!
0F!
1`"
1_"
0r!
0-"
0+"
0I!
0q"
0p"
1="
09"
0R!
1J!
1+!
1v"
1!!
1w"
1F"
0L"
0T!
1L!
0-!
0&#
0#!
0%#
1Z"
0_"
0s!
0k"
1G"
1&#
1h!
1G!
1a"
0."
0r"
1S!
0K!
0~"
1x"
0"!
1}"
1U!
1.!
0'#
0$!
1\"
0a"
0t!
1H"
1j!
0H!
1b"
00"
0t"
1T!
0L!
1!#
1z"
1#!
1%#
0/!
0(#
0V"
0A"
05"
0)"
0{!
0w!
0]!
19#
0b"
0u!
1J"
1l!
1I!
18#
02"
05#
0U!
1"#
14#
1$!
1'#
06!
02#
0*#
0+#
0,#
0-#
0.#
0/#
00#
08#
13#
1V"
1A"
15"
1)"
1{!
1w!
1]!
1/!
1(#
01#
0W"
0B"
06"
0*"
0|!
0x!
0^!
1]"
1c"
0u"
1{"
0)#
0L
1J
0I
1F
1E
1*#
1+#
1,#
1-#
1.#
1/#
10#
16!
12#
0A!
0,
1.
0/
12
13
0c"
1##
0X"
0K"
0?"
03"
0'"
0y!
0m!
0>
0?
0@
0A
0B
0C
0D
1K
0F
1W"
1B"
16"
1*"
1|!
1x!
1^!
11#
0C!
0*
0)
0(
0'
0&
0%
0$
1-
02
1)#
1L
1A!
0D!
1,
1X"
1K"
1?"
13"
1'"
1y!
1m!
1>
1?
1@
1A
1B
1C
1D
1C!
1*
1)
1(
1'
1&
1%
1$
0W!
0=
1D!
0+
1W!
1=
1+
#30000
b11101001 "
b1101001 "
b1101011 "
b11000000 !
b10000000 !
b1101111 "
b0 !
b100 !
0_
1V
0O
0Q
1^
1S
1T
0P
0L#
0N#
0P#
0R#
1S#
1V#
1W#
1X#
1Y#
0Z#
0e
1f
1g
1h
1i
1l
0m
0o
0q
0s
0:#
0<#
0>#
0@#
1A#
1D#
1E#
1F#
1G#
0H#
0^"
1d"
1m"
1s"
1y"
1v
0\!
0z!
04"
0U"
14
0d!
0N!
1F!
1{
1r!
1p!
0n!
1(!
0W
1I"
0F"
0,!
1~"
0}"
0R
0N"
1L"
1-!
1!"
0P!
1H!
1k"
1}
1j"
1O!
0G!
0|
1f"
1s!
0)!
0k"
0&#
0!#
0R"
0.!
1""
1Q!
0I!
1l"
0~
1p"
0j"
1g"
1t!
1q"
0"#
0S"
1$"
1n"
0w"
1r"
0l"
1h"
1u!
03#
0T"
1&"
16#
0x"
1t"
0n"
17#
0z"
15#
0##
1o"
1H
0K
06#
04#
10
0-
1i"
1u"
1I
1G
1/
11
0o"
0{"
0J
0H
0.
00
#35000
b100100 !
b110100 !
b11101111 "
b11101101 "
b1110100 !
b11101001 "
b11110100 !
0^
0S
1P
1X
1Y
1O
1Q
1L#
1M#
1O#
1P#
1Q#
1R#
0S#
0T#
0V#
0X#
0g
0i
0k
0l
1m
1n
1o
1p
1r
1s
1:#
1;#
1=#
1>#
1?#
1@#
0A#
0B#
0D#
0F#
0m"
0y"
0$#
0v
1\!
1v!
1z!
1("
1@"
1U"
04
0g!
0`"
1_"
1n!
0O!
1G!
0(!
1e"
1|
0f"
1N"
0L"
0-!
1R
1-"
1+"
0Q!
1I!
1*!
0q"
1~
0p"
0="
19"
0+!
0v"
1w"
0I"
1F"
1,!
0~"
1}"
0h!
1a"
1)!
1k"
0g"
1j"
1R"
1.!
1."
1R!
0J!
1v"
0r"
0!!
0w"
1~"
1x"
1&#
1!#
0j!
1b"
0*!
1q"
1l"
0h"
1S"
10"
0S!
1K!
0x"
0t"
1"!
0}"
1z"
1"#
0l!
18#
0v"
1n"
07#
1T"
12"
0T!
1L!
0z"
05#
0#!
0%#
0!#
14#
13#
16#
1U!
04#
0$!
0'#
0"#
1c"
0i"
0u"
1{"
1##
1K
1J
0I
0G
1F
0V"
0A"
05"
0)"
0{!
0w!
0]!
0/!
0(#
03#
1-
1.
0/
01
12
1o"
0{"
0J
1H
0*#
0+#
0,#
0-#
0.#
0/#
00#
06!
02#
0.
10
0##
0K
0W"
0B"
06"
0*"
0|!
0x!
0^!
01#
0-
0)#
0L
0A!
0,
0X"
0K"
0?"
03"
0'"
0y!
0m!
0>
0?
0@
0A
0B
0C
0D
0C!
0*
0)
0(
0'
0&
0%
0$
0D!
0W!
0=
0+
