simulation/qsim/ula.msim.vcd
$comment
	File created using the following command:
		vcd file ula.msim.vcd -direction
$end
$date
	Mon Aug 06 03:16:03 2018
$end
$version
	ModelSim Version 10.3d
$end
$timescale
	1ps
$end

$scope module ula_vlg_vec_tst $end
$var reg 8 ! e1 [7:0] $end
$var reg 8 " e2 [7:0] $end
$var reg 8 # op [7:0] $end
$var wire 1 $ s1 [7] $end
$var wire 1 % s1 [6] $end
$var wire 1 & s1 [5] $end
$var wire 1 ' s1 [4] $end
$var wire 1 ( s1 [3] $end
$var wire 1 ) s1 [2] $end
$var wire 1 * s1 [1] $end
$var wire 1 + s1 [0] $end
$var wire 1 , s2 [7] $end
$var wire 1 - s2 [6] $end
$var wire 1 . s2 [5] $end
$var wire 1 / s2 [4] $end
$var wire 1 0 s2 [3] $end
$var wire 1 1 s2 [2] $end
$var wire 1 2 s2 [1] $end
$var wire 1 3 s2 [0] $end
$var wire 1 4 sampler $end

$scope module i1 $end
$var wire 1 5 gnd $end
$var wire 1 6 vcc $end
$var wire 1 7 unknown $end
$var tri1 1 8 devclrn $end
$var tri1 1 9 devpor $end
$var tri1 1 : devoe $end
$var wire 1 ; Mult0|auto_generated|mac_out2~0 $end
$var wire 1 < Mult0|auto_generated|mac_out2~1 $end
$var wire 1 = s1[0]~output_o $end
$var wire 1 > s1[1]~output_o $end
$var wire 1 ? s1[2]~output_o $end
$var wire 1 @ s1[3]~output_o $end
$var wire 1 A s1[4]~output_o $end
$var wire 1 B s1[5]~output_o $end
$var wire 1 C s1[6]~output_o $end
$var wire 1 D s1[7]~output_o $end
$var wire 1 E s2[0]~output_o $end
$var wire 1 F s2[1]~output_o $end
$var wire 1 G s2[2]~output_o $end
$var wire 1 H s2[3]~output_o $end
$var wire 1 I s2[4]~output_o $end
$var wire 1 J s2[5]~output_o $end
$var wire 1 K s2[6]~output_o $end
$var wire 1 L s2[7]~output_o $end
$var wire 1 M e2[0]~input_o $end
$var wire 1 N op[3]~input_o $end
$var wire 1 O op[0]~input_o $end
$var wire 1 P e1[0]~input_o $end
$var wire 1 Q Mux8~0_combout $end
$var wire 1 R Add1~0_combout $end
$var wire 1 S op[1]~input_o $end
$var wire 1 T op[4]~input_o $end
$var wire 1 U Add1~1_combout $end
$var wire 1 V op[2]~input_o $end
$var wire 1 W Add1~2_combout $end
$var wire 1 X Add1~4_cout $end
$var wire 1 Y Add1~5_combout $end
$var wire 1 Z e1[1]~input_o $end
$var wire 1 [ e1[2]~input_o $end
$var wire 1 \ e1[3]~input_o $end
$var wire 1 ] e1[4]~input_o $end
$var wire 1 ^ e1[5]~input_o $end
$var wire 1 _ e1[6]~input_o $end
$var wire 1 ` e1[7]~input_o $end
$var wire 1 a e2[1]~input_o $end
$var wire 1 b e2[2]~input_o $end
$var wire 1 c e2[3]~input_o $end
$var wire 1 d e2[4]~input_o $end
$var wire 1 e e2[5]~input_o $end
$var wire 1 f e2[6]~input_o $end
$var wire 1 g e2[7]~input_o $end
$var wire 1 h Mult0|auto_generated|mac_mult1~dataout $end
$var wire 1 i Mult0|auto_generated|mac_mult1~DATAOUT1 $end
$var wire 1 j Mult0|auto_generated|mac_mult1~DATAOUT2 $end
$var wire 1 k Mult0|auto_generated|mac_mult1~DATAOUT3 $end
$var wire 1 l Mult0|auto_generated|mac_mult1~DATAOUT4 $end
$var wire 1 m Mult0|auto_generated|mac_mult1~DATAOUT5 $end
$var wire 1 n Mult0|auto_generated|mac_mult1~DATAOUT6 $end
$var wire 1 o Mult0|auto_generated|mac_mult1~DATAOUT7 $end
$var wire 1 p Mult0|auto_generated|mac_mult1~DATAOUT8 $end
$var wire 1 q Mult0|auto_generated|mac_mult1~DATAOUT9 $end
$var wire 1 r Mult0|auto_generated|mac_mult1~DATAOUT10 $end
$var wire 1 s Mult0|auto_generated|mac_mult1~DATAOUT11 $end
$var wire 1 t Mult0|auto_generated|mac_mult1~DATAOUT12 $end
$var wire 1 u Mult0|auto_generated|mac_mult1~DATAOUT13 $end
$var wire 1 v Mult0|auto_generated|mac_mult1~DATAOUT14 $end
$var wire 1 w Mult0|auto_generated|mac_mult1~DATAOUT15 $end
$var wire 1 x Mult0|auto_generated|mac_mult1~0 $end
$var wire 1 y Mult0|auto_generated|mac_mult1~1 $end
$var wire 1 z Mult0|auto_generated|mac_out2~DATAOUT8 $end
$var wire 1 { Mux25~0_combout $end
$var wire 1 | op[7]~input_o $end
$var wire 1 } op[5]~input_o $end
$var wire 1 ~ op[6]~input_o $end
$var wire 1 !! Mux16~0_combout $end
$var wire 1 "! Mux16~1_combout $end
$var wire 1 #! Mux16~2_combout $end
$var wire 1 $! Mux16~2clkctrl_outclk $end
$var wire 1 %! Mux8~1_combout $end
$var wire 1 &! Mux8~2_combout $end
$var wire 1 '! LessThan0~1_cout $end
$var wire 1 (! LessThan0~3_cout $end
$var wire 1 )! LessThan0~5_cout $end
$var wire 1 *! LessThan0~7_cout $end
$var wire 1 +! LessThan0~9_cout $end
$var wire 1 ,! LessThan0~11_cout $end
$var wire 1 -! LessThan0~13_cout $end
$var wire 1 .! LessThan0~14_combout $end
$var wire 1 /! LessThan1~1_cout $end
$var wire 1 0! LessThan1~3_cout $end
$var wire 1 1! LessThan1~5_cout $end
$var wire 1 2! LessThan1~7_cout $end
$var wire 1 3! LessThan1~9_cout $end
$var wire 1 4! LessThan1~11_cout $end
$var wire 1 5! LessThan1~13_cout $end
$var wire 1 6! LessThan1~14_combout $end
$var wire 1 7! Mux8~3_combout $end
$var wire 1 8! Mux8~4_combout $end
$var wire 1 9! Add0~0_combout $end
$var wire 1 :! Mux9~2_combout $end
$var wire 1 ;! Mux9~3_combout $end
$var wire 1 <! Mux9~0_combout $end
$var wire 1 =! Mux9~4_combout $end
$var wire 1 >! Equal0~1_combout $end
$var wire 1 ?! Equal0~2_combout $end
$var wire 1 @! Equal0~3_combout $end
$var wire 1 A! Equal0~0_combout $end
$var wire 1 B! Equal0~4_combout $end
$var wire 1 C! Mux9~1_combout $end
$var wire 1 D! Mux9~5_combout $end
$var wire 1 E! Mux9~6_combout $end
$var wire 1 F! Mux8~5_combout $end
$var wire 1 G! Mult0|auto_generated|mac_out2~DATAOUT9 $end
$var wire 1 H! Mux26~0_combout $end
$var wire 1 I! Mux8~6_combout $end
$var wire 1 J! Mux8~20_combout $end
$var wire 1 K! Mux8~12_combout $end
$var wire 1 L! Add1~7_combout $end
$var wire 1 M! Add1~6 $end
$var wire 1 N! Add1~8_combout $end
$var wire 1 O! Mux8~13_combout $end
$var wire 1 P! Mux8~14_combout $end
$var wire 1 Q! Mux8~15_combout $end
$var wire 1 R! Mux8~16_combout $end
$var wire 1 S! Mux8~17_combout $end
$var wire 1 T! Mux8~11_combout $end
$var wire 1 U! Mux8~18_combout $end
$var wire 1 V! Mux8~10_combout $end
$var wire 1 W! Mux8~9_combout $end
$var wire 1 X! Mux8~19_combout $end
$var wire 1 Y! Mux8~7_combout $end
$var wire 1 Z! Mux8~8_combout $end
$var wire 1 [! Mux8~21_combout $end
$var wire 1 \! Mult0|auto_generated|mac_out2~DATAOUT10 $end
$var wire 1 ]! Mux27~0_combout $end
$var wire 1 ^! Mux7~0_combout $end
$var wire 1 _! Mux7~1_combout $end
$var wire 1 `! Mux7~2_combout $end
$var wire 1 a! Add1~10_combout $end
$var wire 1 b! Add1~9 $end
$var wire 1 c! Add1~11_combout $end
$var wire 1 d! Mux7~3_combout $end
$var wire 1 e! Mux7~4_combout $end
$var wire 1 f! Mux7~5_combout $end
$var wire 1 g! Mux7~6_combout $end
$var wire 1 h! Mux7~7_combout $end
$var wire 1 i! Mult0|auto_generated|mac_out2~DATAOUT11 $end
$var wire 1 j! Mux28~0_combout $end
$var wire 1 k! Mux6~0_combout $end
$var wire 1 l! Mux6~2_combout $end
$var wire 1 m! Add1~13_combout $end
$var wire 1 n! Add1~12 $end
$var wire 1 o! Add1~14_combout $end
$var wire 1 p! Mux6~3_combout $end
$var wire 1 q! Mux6~4_combout $end
$var wire 1 r! Mux6~5_combout $end
$var wire 1 s! Mux6~1_combout $end
$var wire 1 t! Mux6~6_combout $end
$var wire 1 u! Mux6~7_combout $end
$var wire 1 v! Mult0|auto_generated|mac_out2~DATAOUT12 $end
$var wire 1 w! Mux29~0_combout $end
$var wire 1 x! Mux5~0_combout $end
$var wire 1 y! Mux5~2_combout $end
$var wire 1 z! Add1~16_combout $end
$var wire 1 {! Add1~15 $end
$var wire 1 |! Add1~17_combout $end
$var wire 1 }! Mux5~3_combout $end
$var wire 1 ~! Mux5~4_combout $end
$var wire 1 !" Mux5~5_combout $end
$var wire 1 "" Mux5~1_combout $end
$var wire 1 #" Mux5~6_combout $end
$var wire 1 $" Mux5~7_combout $end
$var wire 1 %" Add1~19_combout $end
$var wire 1 &" Add1~18 $end
$var wire 1 '" Add1~20_combout $end
$var wire 1 (" Mux4~3_combout $end
$var wire 1 )" Mux4~4_combout $end
$var wire 1 *" Mux4~2_combout $end
$var wire 1 +" Mux4~5_combout $end
$var wire 1 ," Mux4~1_combout $end
$var wire 1 -" Mux4~6_combout $end
$var wire 1 ." Mult0|auto_generated|mac_out2~DATAOUT13 $end
$var wire 1 /" Mux30~0_combout $end
$var wire 1 0" Mux4~0_combout $end
$var wire 1 1" Mux4~7_combout $end
$var wire 1 2" Add1~22_combout $end
$var wire 1 3" Add1~21 $end
$var wire 1 4" Add1~23_combout $end
$var wire 1 5" Mux3~3_combout $end
$var wire 1 6" Mux3~4_combout $end
$var wire 1 7" Mux3~2_combout $end
$var wire 1 8" Mux3~5_combout $end
$var wire 1 9" Mux3~1_combout $end
$var wire 1 :" Mux3~6_combout $end
$var wire 1 ;" Mult0|auto_generated|mac_out2~DATAOUT14 $end
$var wire 1 <" Mux31~0_combout $end
$var wire 1 =" Mux3~0_combout $end
$var wire 1 >" Mux3~7_combout $end
$var wire 1 ?" Mux2~1_combout $end
$var wire 1 @" Add1~27_combout $end
$var wire 1 A" Add1~25_combout $end
$var wire 1 B" Add1~26_combout $end
$var wire 1 C" Add1~24 $end
$var wire 1 D" Add1~28_combout $end
$var wire 1 E" Mux2~3_combout $end
$var wire 1 F" Mux2~4_combout $end
$var wire 1 G" Mux2~2_combout $end
$var wire 1 H" Mux2~5_combout $end
$var wire 1 I" Mux2~6_combout $end
$var wire 1 J" Mult0|auto_generated|mac_out2~DATAOUT15 $end
$var wire 1 K" Mux32~0_combout $end
$var wire 1 L" Mux2~0_combout $end
$var wire 1 M" Mux2~7_combout $end
$var wire 1 N" Mult0|auto_generated|mac_out2~dataout $end
$var wire 1 O" Mux17~0_combout $end
$var wire 1 P" Mux1~0_combout $end
$var wire 1 Q" s2[0]$latch~combout $end
$var wire 1 R" Add0~1 $end
$var wire 1 S" Add0~2_combout $end
$var wire 1 T" Mult0|auto_generated|mac_out2~DATAOUT1 $end
$var wire 1 U" Mux18~0_combout $end
$var wire 1 V" Mux0~0_combout $end
$var wire 1 W" s2[1]$latch~combout $end
$var wire 1 X" Add0~3 $end
$var wire 1 Y" Add0~4_combout $end
$var wire 1 Z" Mult0|auto_generated|mac_out2~DATAOUT2 $end
$var wire 1 [" Mux19~0_combout $end
$var wire 1 \" Mux10~0_combout $end
$var wire 1 ]" s2[2]$latch~combout $end
$var wire 1 ^" Add0~5 $end
$var wire 1 _" Add0~6_combout $end
$var wire 1 `" Mult0|auto_generated|mac_out2~DATAOUT3 $end
$var wire 1 a" Mux20~0_combout $end
$var wire 1 b" Mux11~0_combout $end
$var wire 1 c" s2[3]$latch~combout $end
$var wire 1 d" Add0~7 $end
$var wire 1 e" Add0~8_combout $end
$var wire 1 f" Mult0|auto_generated|mac_out2~DATAOUT4 $end
$var wire 1 g" Mux21~0_combout $end
$var wire 1 h" Mux12~0_combout $end
$var wire 1 i" s2[4]$latch~combout $end
$var wire 1 j" Mult0|auto_generated|mac_out2~DATAOUT5 $end
$var wire 1 k" Add0~9 $end
$var wire 1 l" Add0~10_combout $end
$var wire 1 m" Mux22~0_combout $end
$var wire 1 n" Mux13~0_combout $end
$var wire 1 o" s2[5]$latch~combout $end
$var wire 1 p" Mult0|auto_generated|mac_out2~DATAOUT6 $end
$var wire 1 q" Add0~11 $end
$var wire 1 r" Add0~12_combout $end
$var wire 1 s" Mux23~0_combout $end
$var wire 1 t" Mux14~0_combout $end
$var wire 1 u" s2[6]$latch~combout $end
$var wire 1 v" Mult0|auto_generated|mac_out2~DATAOUT7 $end
$var wire 1 w" Add0~13 $end
$var wire 1 x" Add0~14_combout $end
$var wire 1 y" Mux24~0_combout $end
$var wire 1 z" Mux15~0_combout $end
$var wire 1 {" s2[7]$latch~combout $end
$var wire 1 |" saida_aux [15] $end
$var wire 1 }" saida_aux [14] $end
$var wire 1 ~" saida_aux [13] $end
$var wire 1 !# saida_aux [12] $end
$var wire 1 "# saida_aux [11] $end
$var wire 1 ## saida_aux [10] $end
$var wire 1 $# saida_aux [9] $end
$var wire 1 %# saida_aux [8] $end
$var wire 1 &# saida_aux [7] $end
$var wire 1 '# saida_aux [6] $end
$var wire 1 (# saida_aux [5] $end
$var wire 1 )# saida_aux [4] $end
$var wire 1 *# saida_aux [3] $end
$var wire 1 +# saida_aux [2] $end
$var wire 1 ,# saida_aux [1] $end
$var wire 1 -# saida_aux [0] $end
$var wire 1 .# Mult0|auto_generated|mac_out2_DATAOUT_bus [17] $end
$var wire 1 /# Mult0|auto_generated|mac_out2_DATAOUT_bus [16] $end
$var wire 1 0# Mult0|auto_generated|mac_out2_DATAOUT_bus [15] $end
$var wire 1 1# Mult0|auto_generated|mac_out2_DATAOUT_bus [14] $end
$var wire 1 2# Mult0|auto_generated|mac_out2_DATAOUT_bus [13] $end
$var wire 1 3# Mult0|auto_generated|mac_out2_DATAOUT_bus [12] $end
$var wire 1 4# Mult0|auto_generated|mac_out2_DATAOUT_bus [11] $end
$var wire 1 5# Mult0|auto_generated|mac_out2_DATAOUT_bus [10] $end
$var wire 1 6# Mult0|auto_generated|mac_out2_DATAOUT_bus [9] $end
$var wire 1 7# Mult0|auto_generated|mac_out2_DATAOUT_bus [8] $end
$var wire 1 8# Mult0|auto_generated|mac_out2_DATAOUT_bus [7] $end
$var wire 1 9# Mult0|auto_generated|mac_out2_DATAOUT_bus [6] $end
$var wire 1 :# Mult0|auto_generated|mac_out2_DATAOUT_bus [5] $end
$var wire 1 ;# Mult0|auto_generated|mac_out2_DATAOUT_bus [4] $end
$var wire 1 <# Mult0|auto_generated|mac_out2_DATAOUT_bus [3] $end
$var wire 1 =# Mult0|auto_generated|mac_out2_DATAOUT_bus [2] $end
$var wire 1 ># Mult0|auto_generated|mac_out2_DATAOUT_bus [1] $end
$var wire 1 ?# Mult0|auto_generated|mac_out2_DATAOUT_bus [0] $end
$var wire 1 @# Mult0|auto_generated|mac_mult1_DATAOUT_bus [17] $end
$var wire 1 A# Mult0|auto_generated|mac_mult1_DATAOUT_bus [16] $end
$var wire 1 B# Mult0|auto_generated|mac_mult1_DATAOUT_bus [15] $end
$var wire 1 C# Mult0|auto_generated|mac_mult1_DATAOUT_bus [14] $end
$var wire 1 D# Mult0|auto_generated|mac_mult1_DATAOUT_bus [13] $end
$var wire 1 E# Mult0|auto_generated|mac_mult1_DATAOUT_bus [12] $end
$var wire 1 F# Mult0|auto_generated|mac_mult1_DATAOUT_bus [11] $end
$var wire 1 G# Mult0|auto_generated|mac_mult1_DATAOUT_bus [10] $end
$var wire 1 H# Mult0|auto_generated|mac_mult1_DATAOUT_bus [9] $end
$var wire 1 I# Mult0|auto_generated|mac_mult1_DATAOUT_bus [8] $end
$var wire 1 J# Mult0|auto_generated|mac_mult1_DATAOUT_bus [7] $end
$var wire 1 K# Mult0|auto_generated|mac_mult1_DATAOUT_bus [6] $end
$var wire 1 L# Mult0|auto_generated|mac_mult1_DATAOUT_bus [5] $end
$var wire 1 M# Mult0|auto_generated|mac_mult1_DATAOUT_bus [4] $end
$var wire 1 N# Mult0|auto_generated|mac_mult1_DATAOUT_bus [3] $end
$var wire 1 O# Mult0|auto_generated|mac_mult1_DATAOUT_bus [2] $end
$var wire 1 P# Mult0|auto_generated|mac_mult1_DATAOUT_bus [1] $end
$var wire 1 Q# Mult0|auto_generated|mac_mult1_DATAOUT_bus [0] $end
$upscope $end
$upscope $end
$enddefinitions $end
#0
$dumpvars
b11111111 !
b11111111 "
b0 #
0+
0*
0)
0(
0'
0&
0%
0$
03
02
01
00
0/
0.
0-
0,
x4
05
16
x7
18
19
1:
0;
0<
0=
0>
0?
0@
0A
0B
0C
0D
0E
0F
0G
0H
0I
0J
0K
0L
1M
0N
0O
1P
1Q
0R
0S
0T
1U
0V
0W
0X
1Y
1Z
1[
1\
1]
1^
1_
1`
1a
1b
1c
1d
1e
1f
1g
1h
0i
0j
0k
0l
0m
0n
0o
0p
1q
1r
1s
1t
1u
1v
1w
0x
0y
0z
0{
0|
0}
0~
1!!
0"!
1#!
1$!
0%!
0&!
0'!
1(!
0)!
1*!
0+!
1,!
0-!
0.!
0/!
10!
01!
12!
03!
14!
05!
06!
07!
08!
09!
1:!
1;!
0<!
1=!
1>!
1?!
1@!
1A!
1B!
0C!
0D!
0E!
0F!
1G!
0H!
0I!
0J!
0K!
0L!
1M!
1N!
0O!
0P!
1Q!
1R!
0S!
1T!
1U!
0V!
0W!
1X!
0Y!
0Z!
0[!
1\!
0]!
0^!
0_!
1`!
0a!
0b!
1c!
0d!
1e!
1f!
1g!
0h!
1i!
0j!
0k!
1l!
0m!
1n!
1o!
0p!
1q!
1r!
0s!
1t!
0u!
1v!
0w!
0x!
1y!
0z!
0{!
1|!
0}!
1~!
1!"
0""
1#"
0$"
0%"
1&"
1'"
0("
1)"
1*"
1+"
0,"
1-"
1."
0/"
00"
01"
02"
03"
14"
05"
16"
17"
18"
09"
1:"
1;"
0<"
0="
0>"
0?"
0@"
0A"
0B"
1C"
0D"
0E"
1F"
1G"
1H"
1I"
1J"
0K"
0L"
0M"
1N"
0O"
0P"
0Q"
1R"
1S"
0T"
1U"
0V"
0W"
0X"
1Y"
0Z"
1["
0\"
0]"
1^"
1_"
0`"
1a"
0b"
0c"
0d"
1e"
0f"
1g"
0h"
0i"
0j"
1k"
1l"
1m"
0n"
0o"
0p"
0q"
1r"
1s"
0t"
0u"
0v"
1w"
1x"
1y"
0z"
0{"
0-#
1,#
1+#
1*#
1)#
1(#
1'#
1&#
0%#
0$#
0##
0"#
0!#
0~"
0}"
0|"
0?#
0>#
1=#
0<#
0;#
0:#
09#
08#
07#
06#
05#
14#
13#
12#
11#
10#
1/#
1.#
0Q#
0P#
1O#
0N#
0M#
0L#
0K#
0J#
0I#
0H#
0G#
1F#
1E#
1D#
1C#
1B#
1A#
1@#
$end
#5000
b1111111 !
b1111011 !
b10111111 "
b10011111 "
0e
0f
0[
0`
0@#
0B#
0C#
0F#
1I#
1J#
1M#
1j
1m
1n
0q
0t
0u
0w
0.#
00#
01#
04#
17#
18#
1;#
1Z"
1j"
1p"
0G!
0v!
0."
0J"
04
0l"
1,"
0)"
1%"
0?!
04!
0r"
19"
06"
12"
0@!
15!
0Y"
0l!
0e!
0c!
1_!
0>!
1)!
0x"
0F"
1?"
1.!
0m"
0+"
13"
0'"
0B!
0s"
08"
0C"
04"
0["
0f!
0*!
0y"
0H"
17!
0(#
0-"
14"
0I"
0:"
0g!
0'#
1D"
0+#
1+!
0&#
#10000
b111011 !
b101011 !
b100011 !
b100010 !
b11111 "
b10111 "
b10011 "
b10100010 !
b1010011 "
b1110011 "
0b
0c
1e
1f
0g
0P
0\
0]
0_
1`
0E#
1H#
0J#
1N#
0O#
0h
1i
0m
1o
0r
03#
16#
08#
1<#
0=#
0N"
1T"
0j"
1v"
0\!
14
0^"
1Y"
1a!
0_!
1>!
0)!
1d"
0q!
1m!
1l"
0,"
1)"
0%"
14!
0,!
02"
05!
1-!
1@"
16!
0.!
0T!
0A!
0R"
19!
1'!
0Y
0Q
0y!
0o!
0e"
0*"
1""
0~!
0|!
0G"
04"
0_"
1["
1c!
1*!
0k"
1e"
0r!
1o!
1m"
1+"
03"
1'"
1C"
14"
0D"
07!
0S"
1O"
0;!
0(!
0!"
0g"
0a"
1+#
0l"
1g"
0t!
1(#
1-"
04"
1D"
0U"
1-#
1)!
0#"
0)#
0*#
0m"
1)#
0,#
0*!
0(#
#15000
b10100000 !
b1110001 "
b10100100 !
b11100100 !
b11110100 !
b1111001 "
b1110100 !
b111001 "
0a
1c
0f
0Z
1[
1]
1_
0`
0A#
1C#
1G#
1K#
0N#
0i
1l
1p
1t
0v
0/#
11#
15#
19#
0<#
0T"
1f"
1z
1v!
0;"
04
1X"
0R!
1L!
1_"
1s!
0m!
0>!
12"
15!
0-!
0`!
0N!
1^"
0Y"
1l!
0n!
0c!
1_!
11!
0)!
1k"
0e"
1*"
0""
1~!
1|!
1?!
1G"
14"
1x"
0?"
06!
1.!
0^"
1Y"
0U!
1N!
1a"
0C"
04"
16!
0.!
0d"
0_"
0["
1l"
0g"
1!"
1y"
17!
1d"
1_"
1["
0X!
1*#
0D"
07!
1e"
0a"
0+#
1m"
0)#
1#"
1&#
0e"
1a"
1+#
0*#
1g"
1(#
0g"
1*#
1)#
0)#
#20000
b101001 "
b1111100 !
b10101001 "
b10101101 "
b1111110 !
b10101111 "
b1111010 !
b111010 !
b101010 !
b10100111 "
b11100111 "
1Z
0[
1\
0]
0_
1a
1b
0c
0d
1f
1g
1B#
0C#
0D#
1E#
1J#
0K#
1N#
1i
0l
1m
1r
0s
0t
1u
10#
01#
02#
13#
18#
09#
1<#
1T"
0f"
1j"
1\!
0i!
0v!
1."
14
0X"
1`!
1R!
1b!
0N!
0l!
1n!
1c!
01!
1)!
1y!
1{!
0o!
02!
1*!
0k"
0*"
0~!
0|!
0G"
1C"
14"
05!
1-!
0L!
0a!
1m!
1z!
02"
0x"
0@"
1?"
06!
1.!
1^"
0Y"
1U!
0!"
0&"
13!
0+!
0l"
0b!
1N!
04"
0y"
17!
0d"
0_"
0["
1X!
0#"
13"
0'"
04!
1,!
0m"
0c!
0&#
1e"
0a"
0+#
14"
0(#
1g"
0*#
1)#
#25000
b1010 !
b11100110 "
b11000110 "
b1000110 "
b1000010 "
b1000 !
b1001000 !
b1011000 !
b10 "
0M
0b
0e
0f
0g
0Z
1]
0^
1_
0B#
0E#
0G#
0I#
1K#
0M#
0N#
0i
0j
1l
0n
0p
0r
0u
00#
03#
05#
07#
19#
0;#
0<#
0T"
0Z"
1f"
0p"
0z
0\!
0."
04
0:!
09!
0'!
1R
0^"
1Y"
1a!
0_!
1q"
0)"
1%"
0?!
12"
15!
0-!
1x"
1@"
0?"
1X"
1S"
0`!
1W!
0R!
0N!
1k"
0e"
1*"
1""
1|!
07"
03"
1'"
1G"
0C"
04"
0=!
0O"
1Y
1d"
1_"
1["
1c!
0w"
1r"
0+"
13"
0'"
16!
0.!
1y"
0Y"
1U"
0U!
1l"
0g"
0-#
0k"
1e"
1a"
1+#
0x"
1s"
0-"
14"
07!
1&#
0["
1,#
0X!
1m"
0)#
0l"
1g"
1*#
0+#
0y"
1'#
1(#
0m"
1)#
0&#
0(#
#30000
b1011001 !
b11011001 !
b0 "
b1000 "
b11111001 !
b10111001 !
b1001000 "
0a
1c
1f
1P
1^
0_
1`
1B#
1C#
1E#
0H#
0J#
0K#
1L#
1k
0l
0m
0o
1r
1t
1u
10#
11#
13#
06#
08#
09#
1:#
1`"
0f"
0j"
0v"
1\!
1v!
1."
14
0S"
0W!
1L!
1(!
0d"
0_"
0s!
1q!
0m!
1>!
12!
0*!
02"
05!
1-!
1T!
1:!
19!
1/!
0M!
0Y
1l"
17"
1,"
1'"
0G"
04"
1x"
1?"
0U"
1b!
0)!
1k"
0e"
0a"
1r!
0{!
1o!
1C"
14"
1=!
1O"
00!
1m"
1y"
0,#
0n!
0c!
1*!
0q"
0l"
0g"
0*#
1t!
0|!
1D"
1-#
11!
1(#
1&#
1{!
0o!
1w"
0r"
0m"
0)#
02!
1|!
0x"
0s"
0(#
0y"
0'#
0&#
#35000
b10111101 !
b11001000 "
b11001100 "
b10111111 !
b10111110 !
b111110 !
b11000100 "
b10000100 "
1b
0c
0f
1g
0P
1Z
1[
0`
0B#
1D#
1F#
1G#
1H#
1I#
1J#
1K#
1l
1m
1n
1o
1p
1q
1s
0u
00#
12#
14#
15#
16#
17#
18#
19#
1f"
1j"
1p"
1v"
1z
1G!
1i!
0."
04
1^"
1e!
0a!
0>!
1d"
1_"
1s!
0q!
1m!
0w"
1r"
09"
12"
15!
0-!
0@"
06!
1.!
0T!
0:!
09!
0/!
1M!
1Y
1S"
1`!
1W!
1N!
1l!
1c!
0d"
0_"
1f!
0c!
0k"
1e"
1a"
0r!
1o!
1x"
1s"
0C"
04"
0D"
17!
0=!
0O"
0N!
1U"
1k"
0e"
0a"
1g!
1q"
1l"
1g"
1*#
0t!
1y"
1'#
1D"
0-#
1,#
0q"
0l"
0g"
0*#
0r"
1m"
1)#
1&#
1r"
0m"
0)#
0s"
1(#
1s"
0(#
0'#
1'#
#40000
b110110 !
b10000101 "
b10100101 "
b100110 !
b10100111 "
b100010 !
b100000 !
b10100000 !
b11100111 "
1M
1a
1e
1f
0Z
0[
0\
0]
1`
1@#
0D#
0E#
0F#
0G#
0H#
0K#
0L#
0k
0l
0o
0p
0q
0r
0s
1w
1.#
02#
03#
04#
05#
06#
09#
0:#
0`"
0f"
0v"
0z
0G!
0\!
0i!
1J"
14
1:!
19!
1'!
0R
0L!
10!
0(!
1l"
0,"
1)"
0%"
1?!
1w"
0r"
19"
02"
05!
1-!
0`!
0b!
1N!
0^"
1Y"
0l!
0e!
1n!
1c!
1_!
01!
1)!
1d"
1_"
0y!
0s!
0o!
0k"
1e"
0*"
0""
0|!
0x"
1F"
0?"
16!
0.!
1=!
1O"
0Y
0N!
1m"
1+"
0'"
1x"
0s"
1C"
14"
06!
1.!
0f!
0c!
0_"
1["
0{!
1o!
12!
0*!
0e"
1a"
0l"
1g"
0y"
1H"
07!
1-#
1(#
1-"
1y"
0'#
0D"
17!
0g!
0a"
1+#
1&"
1|!
03!
1+!
0g"
1*#
0m"
1)#
0&#
1I"
0(#
1&#
0*#
03"
1'"
14!
0,!
0)#
04"
#45000
b11110111 "
b11100000 !
b11110011 "
b11100001 !
b11111011 "
b11011011 "
1P
1_
0b
1c
1d
0e
1A#
0C#
1K#
1L#
1N#
1O#
1h
1i
1k
1l
0t
1v
1/#
01#
19#
1:#
1<#
1=#
1N"
1T"
1`"
1f"
0v!
1;"
04
1T!
1R"
09!
0'!
1Y
1Q
1r"
1G"
09"
16"
14"
1@!
0Y"
1a!
0_!
1_"
1s!
0m!
1e"
1""
0z!
0?!
1q"
1l"
1,"
0)"
1%"
04!
1,!
0X"
0S"
0O"
1;!
1s"
18"
0["
1c!
1a"
0o!
1g"
0|!
0r"
1m"
0+"
13"
0'"
15!
0-!
1Y"
0U"
0-#
1'#
1:"
0+#
1*#
1)#
0s"
1(#
0-"
0C"
04"
16!
0.!
1["
0,#
0'#
1D"
07!
1+#
#50000
b11000001 !
b11001001 !
b11011001 !
b11011011 !
b10011011 "
b10001011 "
b11011010 !
0d
0f
0P
1Z
1\
1]
0^
0@#
1B#
1C#
1E#
1F#
0J#
1M#
0O#
0h
1j
0m
1q
1r
1t
1u
0w
0.#
10#
11#
13#
14#
08#
1;#
0=#
0N"
1Z"
0j"
1G!
1\!
1v!
1."
0J"
14
1z!
13!
0+!
0w"
1r"
19"
06"
12"
0@!
0T!
0R"
19!
1'!
0Y
0Q
1S"
1`!
0W!
1R!
1N!
1(!
0d"
0_"
1y!
0s!
1q!
1o!
1>!
1*"
1|!
0l"
07"
0,"
03"
1'"
14!
0,!
0&"
0|!
04!
1,!
0x"
1s"
08"
1U!
0S"
1O"
0;!
0(!
1U"
0)!
1k"
0e"
0a"
1r!
0m"
13"
0'"
0y"
1'#
0:"
1X!
0U"
1-#
1)!
1,#
1*!
1l"
0g"
0*#
1t!
0(#
14"
0&#
0,#
0*!
1m"
0)#
1(#
#55000
b10001010 "
b10001000 "
b11011110 !
b10001100 "
b10000100 "
b11111110 !
b11110110 !
b11110100 !
b11000100 "
b11010100 "
0Z
1[
0\
1^
0M
0a
1b
0c
1d
1f
1@#
0B#
0C#
1D#
0E#
0I#
0L#
0M#
0N#
0i
0j
0k
0n
0r
1s
0t
0u
1w
1.#
00#
01#
12#
03#
07#
0:#
0;#
0<#
0T"
0Z"
0`"
0p"
0\!
1i!
0v!
0."
1J"
04
1X"
0`!
0R!
0N!
1A!
1^"
1l!
1e!
0n!
0c!
1d"
0y!
0q!
0o!
0q"
0l"
17"
1,"
1'"
0:!
09!
0'!
1R
1L!
0a!
1m!
1e"
0""
1~!
0z!
03!
1+!
1w"
0r"
09"
16"
02"
1@!
0Y"
1f!
0U!
1_"
0r!
1{!
0e"
1!"
1r"
0m"
18"
0=!
0O"
1(!
1Y
1N!
1n!
1c!
1g"
1&"
1|!
1x"
0s"
04"
0["
1g!
0X!
1a"
0t!
0&"
0|!
0g"
1#"
1s"
0(#
1:"
0-#
0)!
0{!
1o!
1)#
0'"
1y"
0'#
0+#
1*#
1'"
0)#
1'#
1*!
1&"
1|!
1&#
0+!
0'"
